"","credit_history_numeric","purpose_numeric","marita_status_sex_numeric","other_debtors_numeric","property_numeric","other_installment_numeric","housing_numeric","job_numeric","is_good","bayesmodel"
"2",-1,2,2,1,2,2,1,4,1,-4.03085153845603
"5",5,5,1,1,2,0,1,2,1,1.4450107253043
"9",1,1,1,1,2,0,1,4,1,0.86098465509956
"14",4,9,2,1,0,0,1,3,1,0.256541678356759
"17",1,2,3,2,2,0,1,3,2,0.864797828878402
"18",5,2,1,1,1,0,0,3,1,0.494674421086453
"19",5,5,2,1,2,0,1,5,1,10.2352441584345
"22",4,3,2,1,0,0,1,5,1,9.62948487998922
"24",4,10,2,1,3,1,2,3,2,0.115730278415297
"27",4,7,3,1,2,0,1,2,1,0.456027023901348
"30",5,5,1,1,3,0,1,2,1,1.36797870930418
"32",4,6,2,1,2,0,1,3,2,0.583476263893059
"34",5,9,4,1,2,0,1,4,1,0.0748208800514226
"35",3,2,2,1,-1,0,0,4,2,0.378620919670912
"38",3,3,1,1,2,0,1,3,1,0.951892660174206
"40",5,4,4,1,3,0,1,3,2,0.56816077512354
"44",4,2,3,1,0,0,1,2,1,0.44489848693816
"45",4,1,2,1,0,2,1,2,1,0.772663078310059
"47",3,2,1,1,2,0,1,4,1,0.662888136046614
"50",3,11,1,1,3,0,0,3,2,1.54034762103637
"54",3,7,1,1,3,2,1,2,2,0.88322849249522
"60",0,0,1,1,3,2,1,2,1,0.0193682557445074
"61",3,2,1,1,2,0,1,1,2,-0.993948106084545
"63",1,2,4,1,2,0,2,4,1,0.401588484811765
"68",0,1,1,1,1,2,1,4,1,-0.484683126511303
"69",4,4,4,2,2,0,1,2,1,0.507344237030418
"75",4,5,2,1,2,1,1,3,1,0.703751851574149
"77",4,0,2,3,2,0,1,3,1,0.424463827104813
"79",3,7,1,1,0,0,1,2,1,0.92192018784579
"80",4,0,2,1,4,0,1,2,2,0.708598348552546
"82",4,1,1,1,3,2,1,4,2,0.696426552129364
"84",4,5,3,1,3,0,1,3,2,0.732898169437044
"87",5,2,2,1,-1,0,0,3,1,0.838416199389308
"90",5,4,2,1,0,0,1,3,1,0.964726397936673
"94",4,2,1,1,2,0,0,3,1,0.733822184670275
"99",3,5,3,1,2,2,1,4,1,0.77765232582246
"100",4,2,1,1,0,0,1,2,2,0.765828376939158
"103",4,2,4,1,4,0,1,2,2,0.467016335980788
"105",4,3,1,1,0,0,1,3,2,0.878495059708292
"107",5,0,1,1,4,0,1,3,1,1.31415239203381
"110",5,2,2,1,3,0,1,3,2,0.832735231848242
"113",5,7,2,3,0,0,1,4,1,0.687139603555699
"114",3,3,2,1,3,0,1,3,2,0.661944476257438
"115",4,3,1,1,3,0,1,4,1,0.550098752761708
"120",2,5,1,3,-1,0,1,4,2,0.926306182452108
"121",3,1,1,1,3,0,1,2,2,0.907821673304187
"124",4,4,2,1,1,0,2,2,2,0.126662138936431
"126",5,3,1,2,4,0,1,3,1,1.68453354092757
"128",4,5,1,1,3,0,0,5,1,9.98226707925626
"130",5,5,2,1,2,0,1,4,2,1.05575671602919
"136",5,3,2,1,2,0,2,5,1,10.1299947855682
"137",5,1,1,1,2,0,0,1,2,-0.639573537053971
"138",5,2,1,1,2,0,0,4,2,0.871634993177953
"144",4,6,4,1,1,0,1,4,2,-0.508397986688087
"147",5,1,1,1,0,0,1,2,1,1.26485035155377
"150",2,1,4,1,0,0,0,1,1,-1.31719985919446
"151",4,3,2,1,2,0,1,5,1,9.59370204325046
"153",5,0,1,1,2,0,1,3,1,1.08051465826252
"162",2,0,1,1,2,0,1,2,1,0.824528824524924
"163",4,3,1,1,1,0,0,2,1,0.17545961544173
"164",1,2,1,1,0,0,1,3,1,0.966721234146789
"166",5,2,1,1,2,0,1,4,1,0.907101961557311
"167",0,4,1,1,3,2,1,4,1,-0.095624514761913
"170",4,0,2,1,3,0,1,2,1,0.397928598781134
"171",4,3,2,1,1,0,1,4,2,-0.178327425454018
"172",4,10,3,1,4,2,1,2,1,0.384559426986461
"183",1,4,2,1,2,0,2,4,1,0.704515568235561
"184",5,2,3,1,1,0,0,4,1,-0.0418369231222429
"187",4,4,1,1,1,0,2,3,2,0.37882191970232
"188",4,2,1,1,1,2,1,3,1,0.25087028413875
"190",5,1,2,1,2,0,1,4,1,0.839813505539898
"195",4,1,3,1,1,0,2,4,1,-0.0312380259566889
"198",5,3,1,1,3,0,1,5,1,10.0829804578824
"199",4,4,2,1,3,0,2,2,1,0.642172149235509
"205",5,3,3,1,3,0,1,4,1,0.582563125476087
"206",5,5,2,1,3,0,1,4,1,0.978724700029071
"212",3,2,1,3,2,2,2,5,1,10.0096568149169
"218",4,6,1,1,2,0,0,5,1,9.72483145162793
"219",3,1,1,1,2,0,1,2,1,0.984853689304307
"220",5,6,2,1,3,0,1,3,1,0.859838510608315
"221",5,2,2,1,2,0,2,3,1,1.0926657274507
"223",5,1,2,1,3,0,1,4,2,0.762781489539778
"224",4,1,1,1,3,0,1,1,2,-1.03453284739011
"227",0,2,2,1,2,2,1,4,1,-0.250684980027988
"230",3,1,1,1,3,0,1,3,1,0.947065286153428
"233",5,0,3,1,4,0,2,2,2,1.13687736878591
"235",3,2,1,1,2,2,1,4,1,0.737011293434929
"236",4,6,1,1,0,2,1,4,1,0.690716971729088
"241",5,2,2,1,4,0,1,3,1,1.14340498161965
"242",5,1,1,1,3,0,1,4,1,0.975697657456426
"245",4,1,4,1,4,2,2,3,2,0.908909297719915
"246",3,10,1,1,2,0,1,2,1,0.506908863032532
"250",5,9,4,1,3,0,2,4,1,0.180687343653639
"254",4,2,2,1,-1,1,1,5,1,9.27020283730351
"259",4,2,1,1,1,0,1,4,2,-0.0388343274572633
"263",3,2,2,1,2,0,1,3,1,0.665553422337665
"264",5,3,2,1,2,0,1,2,2,0.943946704919014
"265",3,2,2,1,3,0,0,5,1,9.51696042615577
"268",4,3,1,1,2,1,2,2,2,0.772175033775259
"274",4,2,1,1,1,2,1,4,2,0.0352888299310514
"278",5,1,1,1,2,0,1,3,1,1.26831112766424
"281",5,1,2,1,1,0,1,4,2,0.2472714792407
"282",4,3,1,1,0,0,1,2,1,0.839251446859051
"286",3,2,1,1,2,0,1,3,2,0.878469590254313
"288",3,4,1,1,3,0,1,4,1,0.605032433396042
"289",5,2,1,1,3,0,0,3,2,1.01018443138553
"290",4,4,2,1,3,0,2,4,1,0.46583430787705
"292",4,5,4,1,2,2,2,3,2,0.891214774437916
"294",0,7,2,1,3,2,1,3,2,-0.0652241681184567
"297",3,2,1,1,2,2,1,3,1,0.952592747642628
"299",3,3,1,1,2,0,2,2,2,1.0955475269273
"302",5,5,1,1,2,0,1,3,2,1.48425433815354
"308",4,4,2,1,2,0,0,4,2,0.324500875895475
"310",5,0,1,1,2,1,1,2,1,0.827078989465914
"311",4,3,1,1,3,2,1,2,1,0.800559751508481
"313",4,6,2,1,3,0,1,2,1,0.467200635043698
"314",2,4,3,1,2,0,1,4,1,0.388606164017507
"317",4,6,1,1,-1,0,0,3,1,0.725041383350653
"320",1,5,1,1,1,1,2,2,1,0.629430104303087
"321",2,1,1,1,2,1,0,3,1,0.801909882449168
"324",4,4,2,1,4,0,1,3,1,0.809187032253824
"328",5,1,3,1,3,0,1,4,2,0.654767767455429
"329",5,5,1,1,1,0,1,4,2,0.676130857646641
"330",5,4,2,1,0,0,1,4,1,0.749144943728975
"334",4,4,2,1,0,0,1,2,2,0.572088522372056
"336",3,1,1,1,0,0,1,3,2,1.05988013889231
"337",4,2,2,1,2,0,1,4,2,0.340791530925286
"339",4,2,1,3,3,0,1,2,1,0.563273123674591
"342",3,2,1,2,0,0,1,2,1,1.12979813561521
"343",5,3,1,3,0,0,1,4,2,0.926567467690288
"345",4,0,2,1,3,0,0,3,1,0.401705243251016
"350",5,2,2,3,0,0,0,2,1,0.781099102832846
"351",4,4,2,1,1,0,1,4,2,-0.232574182024365
"356",5,4,3,1,2,0,1,5,1,9.78483582731114
"359",4,2,2,1,2,0,1,4,2,0.340791530925286
"360",5,2,1,1,2,0,1,4,1,0.907101961557311
"362",4,5,1,2,2,0,0,2,1,1.31093881568094
"366",5,2,1,1,1,0,0,4,1,0.279092966878754
"367",5,1,1,3,2,0,1,3,1,1.17857072713856
"374",4,0,1,1,3,0,1,3,2,0.650088379547023
"378",4,6,3,3,1,1,0,3,1,-0.456478909342892
"379",3,3,1,1,3,2,1,4,1,0.733402347354703
"380",1,3,2,1,2,0,2,4,1,0.758762324805908
"381",5,4,1,1,2,0,0,3,1,1.1063927607352
"382",5,1,3,1,3,0,2,4,2,0.837666247057766
"385",0,1,2,1,2,0,1,2,1,-0.00284258415861022
"386",4,6,1,1,3,2,1,3,1,0.793483573197902
"388",4,3,1,1,2,0,1,4,1,0.627130768761828
"392",4,0,2,1,4,0,1,2,2,0.708598348552546
"396",3,2,1,1,2,2,0,3,2,0.917125779263269
"399",5,1,2,1,3,0,1,5,1,9.94226893194506
"400",4,2,1,1,1,0,2,3,1,0.359645606352773
"401",5,2,2,1,2,0,1,4,1,0.694185793640663
"402",2,1,3,1,0,0,1,2,2,0.727178240664417
"403",5,3,1,1,1,0,0,4,1,0.352516036798648
"405",1,1,2,1,1,0,2,4,1,0.238424940486051
"407",5,7,1,1,1,0,0,4,1,0.326004340580707
"409",4,2,1,1,1,1,0,3,1,-0.0729118975762867
"410",3,4,1,1,0,0,1,2,1,0.894185127493384
"412",5,3,3,1,1,0,0,3,1,0.247167601005349
"414",4,10,1,1,2,2,1,3,2,0.511095196065407
"415",3,4,1,1,2,2,2,3,1,1.15466754059451
"416",4,4,1,1,3,0,1,3,1,0.711433450399061
"417",5,4,3,1,3,0,1,4,1,0.528316368905741
"419",4,2,1,1,2,0,1,4,1,0.553707698841934
"428",1,2,1,1,2,0,1,2,1,0.891694784558783
"429",3,1,1,3,2,0,1,3,1,0.934356901627866
"437",4,4,1,1,0,0,1,2,1,0.785004690288705
"438",4,1,1,1,2,0,1,3,1,0.914916864948868
"439",0,5,1,1,0,2,1,3,1,0.575166401223652
"441",4,3,1,2,2,2,1,3,2,1.17162470182922
"442",1,6,2,1,3,2,1,2,1,0.702973036790404
"447",4,1,1,1,2,0,1,4,2,0.69933541074117
"452",5,2,1,2,0,0,1,3,2,1.41325557397515
"455",4,3,1,1,0,0,0,2,1,0.803784478479693
"457",5,2,2,1,3,0,0,4,2,0.581686809261185
"464",4,2,1,1,0,0,2,4,2,0.772389015183037
"475",2,1,2,1,3,1,1,3,1,0.547428666911758
"476",3,7,2,1,0,0,1,4,1,0.532666178570683
"477",3,2,2,1,3,0,2,2,1,0.732176273090641
"478",2,5,2,1,1,0,0,5,1,9.39049294286756
"479",4,4,1,1,3,0,2,3,1,0.894331930001398
"481",4,5,2,1,2,0,1,4,1,0.702362453313815
"485",2,1,1,1,2,2,1,2,1,1.08644845131496
"490",5,1,3,1,2,0,1,4,2,0.731799783455548
"491",5,0,2,1,2,0,0,3,2,0.832131521966513
"494",5,9,1,1,3,0,1,4,1,0.4944558020422
"496",4,2,1,1,-1,0,0,2,2,0.658694491741339
"497",4,3,1,1,-1,1,1,4,2,0.377054632734769
"498",4,1,2,1,3,0,1,3,2,0.6249686810321
"501",4,3,1,1,0,0,1,4,2,0.662913605500593
"504",4,3,1,2,-1,1,1,3,2,0.847425408413843
"506",5,2,4,1,2,0,1,2,2,0.586772864924872
"508",5,1,1,1,1,0,1,4,2,0.460187647157348
"509",4,6,2,1,2,0,1,4,1,0.36789480968536
"510",4,1,1,1,3,0,1,2,1,0.798641236099508
"511",4,6,1,1,0,0,1,2,1,0.792931655699231
"512",5,0,2,1,3,0,1,4,1,0.574985020138052
"513",5,3,2,1,0,0,1,5,1,9.9828791427046
"517",3,3,1,1,0,0,1,3,1,0.987675496912971
"520",4,0,1,1,4,0,1,3,1,0.960758129318435
"522",3,12,1,1,0,1,1,3,2,0.0592955618707087
"526",3,3,1,1,0,2,0,4,2,0.810750231714229
"527",4,1,1,1,3,0,1,2,1,0.798641236099508
"533",4,0,1,1,4,0,1,3,1,0.960758129318435
"534",5,5,4,2,4,0,1,3,1,1.47601445540531
"535",4,0,1,1,2,0,0,3,1,0.691653427167785
"537",2,4,1,2,2,2,1,2,2,1.21478637423665
"538",4,4,1,1,3,0,1,4,1,0.495851996191362
"539",5,2,1,1,4,0,1,2,1,1.31707753668706
"541",3,3,2,1,0,0,1,3,1,0.774759328996323
"544",2,3,3,1,0,0,1,2,1,0.654973598685076
"547",4,2,1,1,1,2,1,4,1,0.0352888299310514
"549",1,0,2,1,4,0,2,4,1,0.876808231154816
"551",4,3,1,1,1,0,1,3,2,0.250170196670329
"552",0,2,1,1,0,0,1,2,2,0.100228708597568
"553",5,5,4,2,1,0,1,5,1,9.6137406835324
"556",5,1,1,3,0,0,1,2,1,1.17510995102809
"559",3,1,1,1,3,1,1,3,1,0.732873230206064
"561",5,2,1,1,3,0,1,3,1,1.04565139976489
"563",4,0,1,1,0,0,0,2,1,0.688192651057309
"565",4,5,1,1,2,0,0,4,1,0.879811652851105
"566",1,3,1,1,0,1,1,2,2,0.786708635270078
"570",5,2,2,1,3,0,1,4,1,0.617153777640543
"571",4,1,2,1,2,0,1,4,2,0.486419242824521
"572",4,3,1,3,2,2,2,4,2,0.794412005226798
"574",4,4,1,1,0,0,2,4,1,0.791565328532583
"575",3,3,2,1,3,0,1,4,2,0.44636302204974
"576",4,1,4,1,2,0,1,4,2,0.202668472750272
"577",5,2,1,0,-1,0,0,4,2,1.42629420169596
"578",4,4,2,1,2,0,2,4,1,0.54286632387717
"579",5,0,1,1,3,0,1,3,1,1.0034826422624
"582",3,2,1,1,0,0,1,4,1,0.698670972785379
"585",5,2,2,1,2,0,1,4,1,0.694185793640663
"588",3,8,1,1,2,0,1,4,1,0.622981239923748
"589",1,2,1,1,3,0,0,2,2,0.779195800179306
"591",2,2,1,1,3,0,1,4,1,0.613327724668837
"594",5,3,1,1,2,0,1,4,1,0.980525031477204
"595",5,5,2,1,2,0,2,4,1,1.23865519563153
"603",4,5,2,1,0,0,1,2,1,0.914483131411038
"604",3,2,4,1,4,0,1,2,1,0.576196773185467
"606",4,1,1,1,2,0,1,2,1,0.875673252099628
"607",4,1,2,1,0,0,1,2,2,0.698539920921745
"614",4,0,1,1,3,0,1,1,2,-1.22232931679183
"619",0,3,3,1,2,2,0,4,1,-0.320742600571803
"620",4,2,1,1,2,0,0,2,1,0.694578571821035
"621",5,2,1,2,1,0,1,4,1,0.569349256729488
"622",4,2,2,1,1,2,1,5,1,9.00186010441968
"626",4,1,1,1,1,0,1,4,2,0.106793384441972
"629",3,2,4,1,3,2,1,3,2,0.378893793651611
"630",3,4,1,1,-1,1,1,4,2,0.431988313369102
"632",5,2,2,1,3,0,1,4,2,0.617153777640543
"635",4,7,2,1,-1,0,1,4,2,0.351818824547544
"636",3,9,2,1,2,0,1,2,1,0.290695665973433
"640",0,5,1,1,3,2,1,1,1,-1.41006614785409
"641",4,3,2,1,0,0,1,3,2,0.665578891791643
"642",5,1,2,1,2,0,2,4,1,1.02271198514223
"651",4,3,1,1,3,0,1,3,1,0.765680206969407
"654",4,1,4,1,2,2,1,3,1,0.492373084346286
"656",3,2,1,1,2,0,1,4,2,0.662888136046614
"657",2,5,2,1,0,0,1,2,1,1.05113517323806
"661",1,4,2,1,-1,2,1,4,1,0.559856165941844
"663",5,4,1,1,1,0,0,4,2,0.298269280228302
"664",5,2,1,1,0,0,1,4,1,0.942884798296076
"666",3,6,0,1,0,0,1,2,1,2.65811045018664
"667",5,3,2,1,3,0,1,4,1,0.690576847560436
"670",5,3,1,1,2,0,1,3,1,1.1961064856849
"674",1,4,1,1,0,0,1,2,1,0.946653934647096
"676",5,1,1,2,0,0,1,4,1,1.34330183166669
"680",4,4,1,1,2,0,1,4,2,0.572884012191482
"684",4,0,1,1,0,0,1,3,2,0.762903232285908
"686",4,2,0,1,1,0,0,2,1,1.85803490280457
"687",5,3,4,1,-1,0,0,3,1,0.628088499234953
"688",1,3,2,1,1,1,0,4,1,-0.26633720542235
"690",4,9,2,1,2,0,1,1,2,-1.65165885472086
"691",5,3,1,1,2,0,2,4,1,1.16342351107954
"694",4,5,2,1,-1,2,0,3,1,0.920716016450775
"695",4,4,1,1,2,0,1,5,1,9.75237145459676
"701",5,5,2,1,0,0,1,4,1,1.09153955276796
"706",1,3,2,1,2,0,1,4,1,0.575863845203571
"713",2,4,2,1,2,0,0,3,2,0.676734371930196
"714",4,6,1,1,0,0,1,4,2,0.616593814340773
"715",4,9,1,1,1,0,0,3,1,-0.194333985143914
"717",4,3,1,1,2,0,1,4,2,0.627130768761828
"718",4,1,2,1,2,0,1,3,1,0.70200069703222
"719",4,5,2,1,4,0,1,4,1,0.936000187085107
"724",3,3,1,1,1,0,2,3,1,0.542249113477346
"725",4,4,2,1,4,0,2,2,1,0.95284189900692
"726",5,2,1,2,2,0,2,3,1,1.56037121683872
"727",3,4,4,1,1,2,1,4,1,-0.333021357505619
"731",4,2,4,1,2,0,1,1,2,-1.59979548128012
"734",3,1,2,1,4,0,1,4,1,0.829237413800493
"735",3,3,1,1,1,0,0,5,1,9.28778965369323
"736",5,3,3,1,2,0,1,3,1,0.875176595683906
"739",3,0,2,1,3,0,1,4,1,0.330771194627356
"740",4,3,1,1,2,2,0,4,1,0.665786957770785
"741",5,1,2,1,2,0,1,2,1,1.01615134689836
"742",4,4,1,1,4,0,1,1,2,-0.850314496168385
"745",2,2,1,1,-1,0,0,2,1,0.795346533568361
"746",5,3,1,1,2,0,1,5,1,10.1600124738825
"748",2,1,2,1,3,0,1,3,2,0.761620722859123
"750",5,1,2,1,3,0,2,4,2,0.945679969142115
"751",1,0,2,3,3,0,2,3,1,0.691979535065421
"754",4,4,0,1,0,0,1,1,1,0.70782896408182
"755",5,1,4,1,0,0,1,2,1,0.768183413562871
"756",3,6,1,2,2,0,1,2,1,1.12111857763652
"760",1,4,1,1,-1,0,1,4,2,0.698649176470177
"761",5,3,2,1,0,0,2,4,2,0.986290179901658
"762",5,1,2,1,2,0,1,3,2,1.0553949597476
"764",5,4,1,2,0,0,1,3,1,1.4324318873247
"767",1,4,1,1,2,0,1,4,1,0.734533256549873
"768",4,3,1,1,0,0,1,5,1,9.84240104790587
"770",3,1,1,1,2,2,0,3,1,1.0627534911625
"775",3,2,3,1,0,0,1,2,1,0.55407892414284
"776",2,3,1,1,3,2,1,4,2,0.760873951977045
"777",1,2,1,1,3,0,0,3,2,0.818439413028546
"778",4,6,1,1,2,0,1,4,1,0.580810977602008
"781",3,4,2,1,1,0,2,2,1,0.23584257614111
"783",4,1,3,1,3,0,1,3,1,0.516954958947751
"792",5,4,1,1,2,0,1,4,1,0.926278274906858
"793",4,2,1,2,1,0,1,5,1,9.39544243641939
"795",2,6,1,1,2,2,0,2,2,0.932457049796445
"796",4,6,1,1,0,1,1,2,1,0.578739599751867
"797",4,2,2,1,2,0,1,2,1,0.517129372283745
"803",2,0,3,1,3,0,1,2,1,0.426566918523807
"804",2,0,1,1,2,0,1,3,1,0.863772437374165
"805",4,1,2,2,3,1,1,2,2,0.626322333706871
"808",4,1,1,1,2,1,1,4,1,0.485143354793806
"810",1,4,1,1,2,2,1,2,1,0.984994255296646
"811",4,4,1,1,3,0,0,3,1,0.675966482019702
"812",5,1,1,1,1,0,0,3,1,0.640302132985688
"813",1,2,4,1,2,0,2,3,2,0.617169939019464
"814",3,2,2,2,1,0,1,4,2,0.112219263302143
"816",4,5,1,1,2,0,1,3,1,1.13086007543816
"817",0,5,1,1,3,0,1,4,1,0.172646936888754
"820",1,2,3,1,3,0,1,4,1,0.317395037199208
"821",4,2,3,1,3,0,1,4,1,0.155745792840817
"823",3,2,2,1,1,2,1,4,2,-0.0684469007809173
"831",5,9,3,1,1,0,0,4,2,-0.377451066637234
"833",1,6,2,1,0,0,1,4,1,0.565326890782516
"841",4,3,1,1,3,0,1,3,1,0.765680206969407
"843",4,3,2,1,3,0,0,4,1,0.301715616465702
"849",5,8,1,1,3,0,1,3,1,1.00574450364202
"856",2,3,2,1,1,0,1,4,2,-0.0416753836269962
"857",5,4,1,3,1,0,1,4,2,0.243995848081978
"858",0,2,1,1,3,0,1,2,2,-0.0125861441413168
"859",4,8,1,3,2,2,0,4,1,0.462716591202343
"860",2,2,1,1,1,0,1,4,2,0.0978177143697586
"862",4,3,4,1,2,2,1,4,1,0.204586988159245
"866",4,4,1,1,3,0,0,5,1,9.63987247021728
"868",3,6,1,1,3,0,1,3,1,0.828540853014267
"872",5,2,2,1,2,0,1,3,2,0.909767247848361
"876",3,2,1,1,4,0,1,3,1,1.11210732402561
"877",5,2,1,1,0,0,1,4,1,0.942884798296076
"880",4,1,2,1,4,2,2,5,1,10.1565660559917
"883",2,3,3,1,3,0,1,4,1,0.365820904587733
"885",4,8,1,1,2,2,1,2,1,0.764261801465841
"886",3,0,2,2,2,0,1,4,1,0.662592532098851
"891",2,1,1,1,2,2,1,2,2,1.08644845131496
"892",5,2,1,1,1,0,0,3,1,0.494674421086453
"894",4,11,2,1,1,0,1,5,1,9.7021139621929
"898",5,2,3,1,3,0,1,4,2,0.509140055556194
"899",5,2,2,1,2,0,0,4,1,0.658718825261304
"900",4,8,1,1,0,0,2,3,2,0.948063573267868
"904",4,2,1,1,2,0,1,4,1,0.553707698841934
"908",5,1,2,3,3,0,1,4,2,0.673041089014096
"911",3,1,1,1,0,0,1,3,1,1.05988013889231
"913",4,1,2,1,1,1,1,4,2,-0.320314839422041
"914",4,2,1,2,1,0,1,5,1,9.39544243641939
"917",5,1,1,1,2,0,1,3,2,1.26831112766424
"918",3,4,1,1,3,0,1,2,2,0.7813702747545
"920",5,6,1,1,2,0,1,4,1,0.934205240317384
"921",3,3,3,1,0,1,1,3,1,0.45255355096461
"923",4,10,1,1,0,0,1,3,2,0.472754875415858
"926",4,3,1,1,3,0,2,3,1,0.948578686571744
"928",4,3,1,1,0,0,1,2,2,0.839251446859051
"929",5,2,3,1,2,0,1,3,1,0.801753525764012
"937",2,1,1,1,2,0,1,4,1,0.835987452568192
"938",5,3,1,1,0,0,1,5,1,10.1957953106212
"941",2,4,1,1,3,2,1,4,1,0.706627195406699
"942",5,2,4,2,0,0,1,3,1,0.916588635984252
"944",4,2,1,1,2,2,1,4,2,0.627830856230249
"946",3,1,2,1,3,0,1,4,2,0.518567664029081
"948",5,0,2,1,3,0,0,2,1,0.715855893117152
"954",4,1,2,1,3,0,1,2,1,0.58572506818286
"955",4,8,1,1,0,0,1,3,2,0.765165093665532
"957",3,4,0,1,0,1,1,2,1,2.43599142882875
"958",1,2,1,3,2,0,1,4,1,0.625616542674644
"960",5,5,2,1,3,0,0,4,1,0.943257731649713
"962",4,1,1,1,3,2,1,2,1,0.872764393487823
"966",5,2,3,1,2,0,1,5,1,9.76565951396159
"969",4,0,1,1,2,0,1,3,1,0.727120395547143
"972",3,1,2,1,1,2,1,3,1,0.292762265326017
"974",5,2,1,1,2,0,1,5,1,10.0865894039626
"976",4,4,1,1,4,0,1,2,1,0.982859587321232
"979",2,3,2,1,1,0,1,4,2,-0.0416753836269962
"980",5,0,2,3,3,0,1,2,1,0.661582460970829
"983",4,3,3,2,2,0,1,3,1,0.776571654439905
"984",5,1,1,1,3,0,1,2,1,1.15203549881488
"985",3,1,2,2,1,0,2,1,2,-1.21609078732744
"988",5,3,1,1,0,0,1,5,1,10.1957953106212
"990",4,1,1,1,1,2,1,4,2,0.180916541830286
"994",5,3,2,1,2,1,0,5,1,9.69743728163911
"997",5,3,1,1,2,0,2,4,1,1.16342351107954
"1003",4,1,2,1,3,0,1,4,2,0.409387226824402
"1004",3,5,4,1,2,0,0,3,2,0.707906606272586
"1005",5,4,2,1,4,0,1,1,1,-0.709836401369657
"1007",5,4,1,1,3,0,1,2,1,1.0255841002652
"1008",4,5,2,1,1,2,1,4,2,0.183943584402931
"1010",3,2,1,1,1,0,2,1,1,-1.40359165278141
"1012",3,5,4,1,2,2,0,4,2,0.566448309453202
"1013",4,11,1,1,1,0,1,5,1,9.91503013010955
"1014",5,3,4,1,2,0,1,2,1,0.660195934844765
"1015",1,0,1,1,4,0,1,2,1,1.08316376082759
"1016",3,5,3,1,0,0,1,2,1,0.915649846531368
"1019",3,2,1,1,2,0,1,3,1,0.878469590254313
"1022",3,1,1,1,4,0,1,3,1,1.25773503592484
"1025",1,2,2,1,2,0,1,2,1,0.678778616642135
"1026",4,1,1,1,0,0,1,1,2,-0.921717994651224
"1028",5,2,1,1,3,0,1,4,1,0.830069945557191
"1029",4,1,2,1,2,0,1,4,2,0.486419242824521
"1030",4,5,2,1,2,0,1,2,2,0.878700294672273
"1031",2,0,1,1,2,0,1,2,2,0.824528824524924
"1037",4,1,2,1,2,0,0,5,1,9.63043971685044
"1042",0,1,2,1,2,1,2,3,2,0.00510745234560337
"1043",4,1,1,1,0,0,1,2,1,0.911456088838393
"1044",4,2,2,1,3,0,1,4,2,0.263759514925167
"1045",4,1,2,1,2,1,1,2,2,0.448565028235615
"1046",5,3,2,1,2,0,0,4,1,0.732141895181198
"1047",4,3,2,1,1,0,0,3,1,0.00178706037432242
"1054",5,5,3,1,3,0,1,2,1,1.04704881930318
"1058",3,1,1,1,4,0,1,3,1,1.25773503592484
"1059",5,5,1,2,3,0,1,4,1,1.44643018941709
"1060",4,4,1,1,2,0,0,2,1,0.713754885170581
"1065",5,4,3,1,2,0,1,4,1,0.605348384905861
"1066",4,1,2,2,3,0,1,4,2,0.664176548295777
"1070",3,4,2,1,2,0,1,2,2,0.645486122837971
"1072",5,1,2,1,2,0,1,4,1,0.839813505539898
"1073",5,3,1,1,0,0,2,4,1,1.19920634781831
"1078",5,4,2,1,2,0,1,3,2,0.928943561197908
"1081",4,10,1,1,3,2,1,4,1,0.218481725857589
"1082",5,0,2,1,4,0,1,2,1,1.06199261126792
"1083",5,1,2,1,4,0,1,2,1,1.24978908066965
"1087",1,2,3,1,3,0,1,4,2,0.317395037199208
"1091",4,1,2,1,3,0,1,4,1,0.409387226824402
"1092",5,1,1,1,2,0,1,5,1,10.2322171158618
"1100",5,1,1,1,1,0,0,2,1,0.601058520136448
"1101",1,0,1,1,2,2,1,2,1,0.923649184444608
"1104",5,5,2,1,1,0,0,5,1,9.60723516375591
"1105",4,2,2,1,2,0,1,4,2,0.340791530925286
"1106",5,1,2,1,0,0,1,2,1,1.05193418363712
"1107",4,1,2,1,3,0,1,2,2,0.58572506818286
"1108",5,2,2,1,2,0,1,4,2,0.694185793640663
"1110",3,8,3,1,2,0,1,2,1,0.478389191281208
"1111",4,1,2,1,3,0,1,2,1,0.58572506818286
"1113",2,3,3,1,2,0,2,4,1,0.625751400190189
"1116",4,4,1,1,0,0,1,4,1,0.608666848930246
"1117",3,1,2,1,2,2,2,1,2,-0.804214925111306
"1119",4,3,1,1,1,0,1,4,2,0.0345887424626299
"1120",3,4,1,1,2,1,2,2,2,0.827108714409592
"1122",3,2,1,1,2,0,2,4,1,0.845786615648951
"1125",3,1,3,2,3,0,0,3,1,0.845457749244447
"1126",3,6,1,2,2,2,1,2,2,1.19524173502484
"1129",5,2,2,1,2,0,0,5,1,9.83820626766658
"1130",5,1,1,1,2,0,1,4,1,1.05272967345655
"1131",4,1,1,1,1,0,1,4,2,0.106793384441972
"1133",3,3,2,1,-1,2,1,5,1,9.74112155776376
"1139",5,0,2,1,2,0,1,2,1,0.82835487749663
"1140",3,0,1,3,2,0,1,1,2,-1.12585726411272
"1141",5,5,1,1,2,0,1,4,1,1.26867288394584
"1142",2,1,3,1,2,0,2,4,1,0.697956042169531
"1143",4,3,1,1,1,2,0,5,1,9.25273237387687
"1144",5,0,3,1,0,0,1,2,1,0.756123992151046
"1145",2,3,1,1,1,0,0,2,2,0.312111657268752
"1146",3,3,1,1,3,2,2,2,2,1.0926386683155
"1147",5,1,2,1,3,0,2,4,1,0.945679969142115
"1148",3,3,1,1,2,0,2,4,1,0.919209685568845
"1151",4,5,1,1,2,2,2,2,1,1.34863809957957
"1154",5,3,2,1,3,0,1,3,1,0.906158301768135
"1156",4,6,3,1,3,2,1,4,1,0.256972228989206
"1157",5,5,1,3,2,0,1,4,1,1.17893248342016
"1160",5,2,1,1,2,0,1,2,1,1.08343980291577
"1162",5,3,3,1,3,0,1,4,1,0.582563125476087
"1163",1,2,2,1,0,0,0,2,1,0.679094485001542
"1164",3,0,1,1,2,2,1,2,1,0.871180377290896
"1166",4,1,1,1,3,2,1,2,1,0.872764393487823
"1167",5,0,1,1,2,0,1,2,1,1.04127104541328
"1169",5,4,2,1,2,0,1,4,1,0.71336210699021
"1171",5,4,1,1,2,0,1,2,1,1.10261611626532
"1172",4,1,1,3,2,0,1,4,1,0.609595010215488
"1173",3,1,1,1,2,2,0,4,2,0.847172036954805
"1175",4,1,1,1,2,0,1,4,1,0.69933541074117
"1176",5,4,2,1,4,0,1,2,1,1.12333768211996
"1178",5,1,2,1,4,0,1,3,1,1.28903269351889
"1179",1,5,1,1,2,0,1,4,1,1.07692786558885
"1180",5,1,1,1,2,0,1,2,2,1.229067514815
"1191",5,2,1,1,2,0,1,2,1,1.08343980291577
"1193",5,3,1,1,0,0,1,2,1,1.19264570957443
"1196",3,2,1,1,2,0,1,2,1,0.839225977405072
"1199",3,2,1,1,1,2,1,3,2,0.36005072134343
"1202",2,2,1,1,3,0,1,4,1,0.613327724668837
"1203",5,1,4,1,1,0,1,4,2,-0.0364792908335492
"1204",3,4,1,1,1,0,0,4,1,0.0540554547176053
"1206",4,2,2,1,0,2,1,2,1,0.627035366410824
"1207",3,2,1,1,3,0,1,2,2,0.762193961404953
"1208",4,3,1,1,0,0,1,2,1,0.839251446859051
"1209",3,1,1,1,2,0,1,4,1,0.808515847945849
"1217",5,6,2,1,0,0,1,3,1,0.9726533633472
"1219",3,1,3,1,2,0,2,3,1,0.886065891754887
"1224",4,11,0,3,-1,0,0,2,1,3.09932946365992
"1229",5,2,2,1,3,0,1,4,1,0.617153777640543
"1233",3,5,0,1,1,2,1,3,1,2.47762000101469
"1234",2,3,2,2,1,0,1,4,2,0.213113937844379
"1235",5,4,3,1,0,0,1,4,2,0.641131221644625
"1240",2,2,1,1,0,0,1,4,1,0.726142577407722
"1242",3,7,1,1,0,0,1,4,1,0.745582346487332
"1243",4,3,2,1,0,0,1,4,2,0.449997437583944
"1245",3,7,4,1,1,0,0,3,2,-0.199294968713188
"1246",3,4,1,1,3,1,1,4,1,0.390840377448677
"1247",3,5,1,1,2,2,1,4,1,1.09858221582346
"1249",5,3,1,2,3,0,1,3,1,1.37386379115616
"1250",3,12,1,1,2,0,1,4,2,0.0221233268716088
"1251",5,0,2,2,1,0,0,2,1,0.455135204289449
"1252",1,4,3,1,2,0,1,2,2,0.589941207907333
"1253",5,0,3,1,4,0,1,2,1,0.953978889183573
"1256",2,1,1,1,2,0,1,3,1,1.05156890677589
"1257",1,2,2,1,0,2,1,4,1,0.612346769410757
"1259",2,8,2,1,3,1,2,4,1,0.329211084284295
"1260",5,3,4,1,2,0,2,3,1,0.882338027296343
"1261",4,3,3,3,0,2,2,4,1,0.509264951964566
"1262",5,4,1,1,3,0,1,2,1,1.0255841002652
"1263",5,7,1,1,2,0,0,4,1,0.918546366879905
"1267",4,1,1,1,4,0,1,2,2,1.10931098587092
"1269",5,1,1,1,4,0,1,2,1,1.4627052485863
"1271",4,4,2,1,3,0,1,1,2,-1.37390041385645
"1273",4,1,2,1,3,2,1,4,2,0.483510384212716
"1277",5,4,3,1,0,0,1,4,2,0.641131221644625
"1279",4,2,1,1,3,2,1,4,2,0.55079884023013
"1280",4,5,1,1,-1,0,0,2,1,1.02026541412987
"1285",4,6,1,1,2,0,0,4,2,0.54534400922265
"1289",4,11,3,1,2,0,1,4,2,1.00715482400247
"1292",4,4,1,1,2,0,1,1,1,-1.08395222993968
"1298",3,2,2,1,4,2,2,4,2,0.94063133889191
"1300",4,5,2,1,2,0,1,3,1,0.917943907521514
"1306",4,3,3,1,3,0,1,3,2,0.44475031696841
"1307",5,2,1,1,0,0,1,2,1,1.11922263965453
"1308",4,2,1,3,1,2,1,4,1,-0.0544515705946301
"1311",5,0,2,1,3,0,2,3,1,0.973464953948088
"1313",4,0,2,1,3,2,2,2,2,0.654950235771786
"1315",5,3,1,1,2,0,1,3,1,1.1961064856849
"1319",5,2,1,1,-1,0,0,3,1,1.05133236730596
"1322",3,0,1,1,4,0,1,2,1,1.03069495367387
"1328",4,2,1,1,1,2,0,4,1,-0.000178138448306912
"1330",3,2,3,1,3,2,2,4,1,0.521947867036149
"1335",5,3,1,1,2,0,1,3,1,1.1961064856849
"1336",4,2,3,1,3,0,1,4,1,0.155745792840817
"1337",3,2,3,1,1,2,1,3,1,0.0391208313424324
"1346",3,2,2,1,2,2,1,2,1,0.700432966876739
"1348",4,1,1,1,4,1,1,2,1,0.895118929923556
"1349",5,5,2,1,2,0,1,5,1,10.2352441584345
"1350",4,6,1,1,2,0,1,4,1,0.580810977602008
"1353",4,2,2,1,1,2,1,4,2,-0.177627337985597
"1355",0,3,4,1,3,2,1,4,2,-0.538044696182464
"1356",3,1,1,1,4,0,1,3,1,1.25773503592484
"1357",2,2,1,1,3,0,1,3,1,0.828909178876535
"1358",1,0,1,1,4,0,1,2,2,1.08316376082759
"1359",5,4,2,1,0,0,1,3,1,0.964726397936673
"1361",3,2,2,1,-1,2,1,4,2,0.488211045438585
"1362",4,3,4,1,0,0,1,4,2,0.166246667509696
"1363",2,2,3,1,0,0,1,3,1,0.620794141614423
"1364",4,1,1,1,2,0,1,3,2,0.914916864948868
"1365",1,1,1,1,2,0,1,2,2,1.03732249645802
"1366",3,2,1,1,1,0,1,4,2,0.0703461097474162
"1367",5,4,2,1,1,0,2,4,1,0.303718560293349
"1370",3,4,2,1,0,0,1,1,2,-1.15190512391288
"1373",1,3,2,1,0,2,1,3,2,0.901351293538349
"1376",2,9,1,1,2,0,1,4,2,0.354745597153965
"1379",4,6,2,1,2,0,1,2,2,0.544232651043818
"1383",4,1,3,1,0,2,1,2,1,0.66464935622571
"1385",4,2,2,1,1,0,1,4,2,-0.251750495373911
"1388",2,3,2,1,0,0,1,3,1,0.802230933618666
"1389",4,1,2,1,2,0,1,3,1,0.70200069703222
"1391",4,2,1,1,3,0,1,3,1,0.692257137049514
"1393",3,2,3,1,1,0,0,3,1,-0.0704692944252407
"1397",5,3,2,1,3,0,1,3,2,0.906158301768135
"1398",3,2,1,1,1,0,0,4,1,0.0348791413680581
"1399",4,2,2,1,3,0,0,4,2,0.228292546545809
"1400",3,4,1,1,0,0,1,4,1,0.717847286134926
"1401",5,4,2,1,2,0,0,5,1,9.85738258101613
"1404",4,1,1,1,1,0,0,2,2,0.247664257421072
"1411",5,0,3,1,3,0,1,2,2,0.643309139412161
"1413",4,3,2,1,1,0,0,4,1,-0.213794393833376
"1414",5,0,1,1,2,0,1,3,2,1.08051465826252
"1415",5,1,4,1,0,0,1,3,1,0.807427026412112
"1418",3,3,2,1,2,0,1,3,2,0.738976492257558
"1422",5,2,2,1,3,0,1,4,2,0.617153777640543
"1423",1,2,1,1,3,0,1,4,1,0.638324927200206
"1425",3,3,1,1,1,0,0,1,2,-1.54853403084321
"1428",5,1,1,1,3,0,1,4,1,0.975697657456426
"1431",5,4,1,1,0,0,1,5,1,10.1415485540509
"1437",2,7,1,1,3,0,0,4,2,0.624772129991431
"1438",4,3,1,1,1,2,1,4,1,0.108711899850945
"1439",5,3,1,1,2,0,0,3,2,1.16063951730555
"1441",4,2,2,1,-1,0,0,3,1,0.485021936673932
"1442",4,1,1,1,1,2,1,3,2,0.396497996037985
"1443",2,4,2,1,3,0,1,4,1,0.419587870101736
"1445",4,6,1,1,1,2,2,2,1,0.42162842965192
"1448",1,4,1,1,2,0,1,3,1,0.950114710757571
"1450",3,3,1,2,2,0,1,2,1,1.16743836879634
"1454",5,0,1,1,2,0,1,3,2,1.08051465826252
"1458",4,1,1,1,0,0,1,1,1,-0.921717994651224
"1463",4,4,2,1,4,0,1,3,1,0.809187032253824
"1466",4,0,2,1,2,0,1,3,1,0.514204227630494
"1471",4,2,2,1,0,0,1,4,2,0.376574367664051
"1478",4,3,2,1,1,2,1,4,1,-0.104204268065703
"1481",5,1,2,1,3,1,1,4,1,0.548589433592414
"1483",5,2,2,1,3,0,1,3,2,0.832735231848242
"1484",4,2,2,1,3,0,1,3,1,0.479340969132865
"1495",5,1,1,1,3,0,1,3,2,1.19127911166412
"1497",2,1,3,1,4,1,2,3,1,0.932983174201158
"1498",4,2,1,1,0,0,1,2,1,0.765828376939158
"1499",4,5,1,1,0,0,1,4,2,0.951061457969228
"1503",5,3,1,1,0,0,1,3,1,1.23188932242367
"1504",5,2,2,1,2,0,1,4,1,0.694185793640663
"1505",4,0,1,1,0,0,1,2,1,0.723659619436667
"1508",4,0,2,1,2,0,1,4,2,0.298622773422796
"1511",4,6,1,1,2,0,1,4,1,0.580810977602008
"1516",2,3,2,1,0,2,2,4,1,0.843671116401619
"1520",5,2,1,1,0,0,1,4,1,0.942884798296076
"1521",5,1,2,1,3,0,1,4,1,0.762781489539778
"1522",5,1,2,1,2,0,1,2,2,1.01615134689836
"1523",2,0,1,1,3,0,1,2,2,0.747496808524804
"1527",1,5,1,1,2,2,1,2,1,1.32738886433563
"1528",5,3,2,1,2,0,1,2,2,0.943946704919014
"1529",5,2,2,1,1,0,1,4,2,0.101643767341465
"1533",3,2,2,1,2,2,2,3,1,0.922575059328317
"1534",4,1,0,1,-1,1,0,2,1,2.34612850497594
"1538",1,2,3,1,3,0,2,5,1,9.67978095920683
"1540",4,4,1,1,3,2,1,2,1,0.746312994938135
"1541",5,2,2,1,0,1,1,3,1,0.731358028639762
"1546",3,2,4,1,3,0,1,4,1,0.0891891820555971
"1548",4,3,1,1,0,0,1,5,1,9.84240104790587
"1549",4,2,0,0,-1,0,0,4,1,2.82889829626332
"1550",1,1,1,1,2,0,1,2,1,1.03732249645802
"1551",2,1,1,1,2,0,1,2,2,1.01232529392665
"1553",5,1,1,1,2,0,1,4,1,1.05272967345655
"1554",2,0,1,1,0,0,1,2,1,0.860311661263689
"1556",4,4,3,1,4,2,1,2,1,0.736052854708549
"1558",3,0,3,1,2,0,1,2,1,0.476127329901584
"1560",4,2,4,1,1,0,0,4,1,-0.570968233827519
"1562",5,4,1,1,3,0,1,2,1,1.0255841002652
"1563",5,2,1,1,0,0,1,4,1,0.942884798296076
"1565",4,3,1,1,0,2,1,2,1,0.913374604247366
"1566",4,3,1,3,2,0,1,1,2,-1.11944587389501
"1567",4,3,1,1,2,0,1,4,1,0.627130768761828
"1568",4,7,1,1,2,2,1,4,1,0.674742229932202
"1570",1,3,2,1,3,0,1,3,1,0.71441328341115
"1571",5,2,1,1,2,0,1,4,1,0.907101961557311
"1572",3,3,3,1,2,1,1,2,2,0.377527101376604
"1575",5,10,2,1,3,0,1,3,1,0.500418117475701
"1576",4,4,1,1,3,0,1,2,1,0.67218983754982
"1577",4,3,4,3,1,0,2,1,2,-2.02575635858277
"1579",3,6,1,1,1,0,1,4,2,0.09744938850749
"1583",4,1,2,1,3,0,2,4,2,0.592285706426739
"1584",5,1,1,1,2,0,1,4,1,1.05272967345655
"1585",4,4,1,1,1,0,0,3,1,0.160456471720624
"1588",5,2,1,1,2,0,1,3,1,1.12268341576501
"1592",4,5,1,1,0,0,1,2,1,1.12739929932769
"1596",5,2,1,1,0,0,1,4,1,0.942884798296076
"1600",3,0,2,1,2,0,0,1,2,-1.28449999988304
"1601",5,5,3,1,3,0,1,4,1,0.870710977944722
"1603",5,1,2,1,2,0,1,4,2,0.839813505539898
"1607",5,4,1,2,1,0,1,5,1,9.76801301248432
"1608",5,1,2,1,4,0,1,3,1,1.28903269351889
"1610",1,5,3,2,2,0,1,3,2,1.22636875126693
"1611",5,2,2,3,2,0,1,4,1,0.604445393114981
"1614",3,10,2,1,0,0,1,3,1,0.369019144703889
"1617",1,2,3,1,2,0,1,4,1,0.394427053199328
"1619",4,1,2,1,1,0,1,5,1,9.0733646589306
"1622",4,2,1,1,3,0,1,4,1,0.476675682841815
"1627",4,5,1,1,1,0,2,4,1,0.505635074533602
"1628",3,2,1,1,2,0,1,4,2,0.662888136046614
"1629",3,6,0,1,1,2,0,2,1,2.06844177615764
"1631",2,2,1,1,2,0,1,2,1,0.866697582027415
"1632",2,5,1,1,1,2,1,4,1,0.533511794146602
"1634",5,5,3,1,0,0,1,2,2,1.15986367204206
"1637",2,0,2,1,0,0,1,2,1,0.647395493347041
"1640",3,5,1,1,4,0,1,0,1,-3.84989080197115
"1641",5,3,1,1,2,0,1,3,2,1.1961064856849
"1642",3,3,3,1,2,1,1,4,2,0.201189260018146
"1643",4,3,2,1,3,0,1,3,2,0.552764039052759
"1645",4,2,4,1,2,0,1,2,1,0.233378602209496
"1646",5,1,2,1,3,0,1,2,1,0.939119330898236
"1649",5,1,2,1,4,0,2,4,1,1.25634971891353
"1650",3,1,1,1,2,0,1,2,2,0.984853689304307
"1652",5,6,2,1,2,0,1,1,1,-0.935547169730423
"1654",4,4,3,1,5,0,2,2,1,4.39428130773067
"1655",3,2,3,1,2,0,2,3,2,0.740438179855652
"1659",2,0,1,1,3,0,1,2,1,0.747496808524804
"1660",3,5,2,1,3,2,0,3,1,0.98874851773503
"1661",2,11,1,3,2,2,1,3,1,1.66470096690082
"1662",5,2,4,1,2,0,1,4,1,0.410435023566413
"1663",4,1,1,1,2,0,1,3,1,0.914916864948868
"1669",3,2,1,1,1,2,1,5,1,9.32395670954101
"1670",4,3,1,1,0,0,1,3,2,0.878495059708292
"1672",4,1,1,1,3,2,1,2,1,0.872764393487823
"1676",5,1,3,1,3,0,2,2,1,1.01400408841622
"1679",3,4,5,1,3,0,1,4,2,4.3386158998159
"1681",3,2,2,1,2,0,1,3,1,0.665553422337665
"1685",3,2,2,1,0,0,1,3,1,0.701336259076429
"1687",5,2,2,1,4,0,2,4,2,1.11072200701429
"1689",4,0,2,1,3,0,1,4,1,0.221590757422676
"1690",5,2,3,1,2,0,1,4,1,0.586172071556313
"1692",2,9,1,3,3,2,1,4,1,0.262096338016479
"1693",4,1,2,1,3,2,1,4,2,0.483510384212716
"1694",3,3,2,1,-1,0,1,4,2,0.487510957970164
"1695",4,3,1,1,1,1,2,3,1,0.218876620325302
"1698",5,3,2,1,4,0,1,4,1,1.00124659733185
"1699",4,2,2,1,2,0,1,4,2,0.340791530925286
"1702",5,1,1,1,2,0,1,4,1,1.05272967345655
"1703",5,1,1,1,2,0,1,3,1,1.26831112766424
"1704",1,2,4,3,2,0,1,2,1,0.305287446042205
"1705",4,2,2,1,2,0,1,1,2,-1.31604471120587
"1706",4,3,1,1,1,1,1,5,1,8.99988412892055
"1711",4,0,1,1,1,2,1,3,2,0.20870152663626
"1712",4,3,0,1,0,0,1,3,1,2.63449341699102
"1713",5,1,1,1,2,1,1,4,1,0.838537617509182
"1714",3,3,2,1,2,2,1,4,1,0.597518195438174
"1718",4,5,2,1,2,0,1,2,1,0.878700294672273
"1723",4,2,3,1,0,0,1,4,1,0.268560645579702
"1727",4,2,1,1,-1,0,0,2,2,0.658694491741339
"1732",5,2,2,1,3,0,2,4,1,0.80005225724288
"1738",4,1,1,1,2,0,1,3,2,0.914916864948868
"1742",0,1,2,1,2,2,1,4,1,-0.105057268128754
"1743",1,1,1,1,1,0,2,3,1,0.666922562610398
"1744",4,3,2,1,0,0,1,4,1,0.449997437583944
"1745",4,4,1,1,3,0,1,2,1,0.67218983754982
"1750",3,3,1,1,2,0,1,1,1,-0.920525036164651
"1752",1,3,2,1,1,0,0,3,1,0.163436304732713
"1753",3,1,2,1,0,0,1,2,1,0.807720358126424
"1754",2,1,2,1,3,2,1,4,2,0.620162426039738
"1755",4,1,2,1,3,0,0,3,1,0.589501712652742
"1759",5,3,2,1,3,0,2,4,1,0.873475327162773
"1762",3,4,2,1,1,1,2,3,1,0.0608941330429868
"1768",3,2,3,1,1,2,0,2,1,-0.0355897498861666
"1771",4,2,1,1,3,0,1,4,1,0.476675682841815
"1772",4,1,3,3,0,1,1,2,1,0.286593742364349
"1773",5,1,1,1,1,0,2,2,1,0.819423968118143
"1775",1,2,2,1,0,0,1,2,2,0.7145614533809
"1776",1,9,1,1,2,1,2,5,1,9.52793666574559
"1777",4,4,1,1,4,0,1,3,1,1.02210320017047
"1781",2,7,2,1,-1,2,1,4,2,0.562594023762881
"1782",4,2,2,1,2,0,1,4,2,0.340791530925286
"1783",5,2,2,1,2,0,1,3,2,0.909767247848361
"1784",3,6,2,1,2,0,2,5,1,9.83946116889766
"1785",3,3,2,1,3,0,0,4,2,0.410896053670382
"1786",4,4,2,1,1,0,1,4,2,-0.232574182024365
"1791",1,3,2,1,1,0,1,4,2,-0.0166781810956273
"1794",5,4,1,1,1,0,2,2,1,0.692972569568455
"1796",5,2,1,1,0,0,1,5,1,10.1223722407014
"1801",3,4,1,1,2,1,0,5,1,9.61189286747472
"1805",5,4,1,1,2,0,1,2,1,1.10261611626532
"1807",5,2,3,1,2,0,2,4,2,0.76907055115865
"1813",4,5,1,1,3,0,1,5,1,10.0177340476356
"1818",3,4,1,1,3,0,1,2,1,0.7813702747545
"1820",4,4,2,1,0,0,2,5,1,9.75813660302122
"1821",5,3,1,1,2,0,1,2,1,1.15686287283566
"1824",1,5,1,1,2,0,1,2,1,1.25326570694731
"1826",4,3,1,1,2,0,1,2,2,0.803468610120286
"1828",3,3,2,1,2,2,1,2,1,0.773856036796632
"1830",4,3,1,1,2,2,1,3,1,0.916835380357842
"1834",4,4,1,1,4,1,2,4,1,0.775228169617747
"1837",5,2,1,1,1,0,2,4,1,0.49745841486045
"1838",1,2,1,1,-1,0,0,3,1,0.859587348948971
"1843",5,2,2,1,4,0,2,3,1,1.32630346122199
"1846",2,5,1,1,2,2,1,2,2,1.30239166180426
"1853",2,6,1,1,1,0,1,4,2,0.124920993129832
"1858",3,11,1,1,2,0,1,3,1,1.65284660541585
"1859",5,2,1,1,2,0,0,3,1,1.08721644738565
"1860",0,9,1,1,3,0,1,3,1,-0.308956674807067
"1865",3,1,2,1,3,0,2,4,1,0.701466143631418
"1866",4,1,1,2,2,0,1,4,2,0.954124732212545
"1872",5,2,2,1,4,0,1,3,1,1.14340498161965
"1875",4,1,3,1,2,0,1,3,2,0.593986974947871
"1876",4,4,1,1,2,0,1,4,1,0.572884012191482
"1880",5,2,1,1,0,0,1,2,2,1.11922263965453
"1884",5,1,3,1,3,0,1,4,1,0.654767767455429
"1888",3,8,1,1,0,0,1,2,1,0.83510191802097
"1889",5,2,3,1,2,0,1,2,1,0.762509912914772
"1895",5,3,1,1,0,0,1,2,1,1.19264570957443
"1896",2,1,2,2,0,0,0,2,1,1.05451431584078
"1898",4,5,1,1,1,0,0,3,2,0.502851080759606
"1905",5,4,1,1,3,0,1,3,1,1.06482771311444
"1907",4,6,1,1,3,0,1,5,1,9.68326640400717
"1909",5,4,1,1,3,0,0,3,2,1.02936074473508
"1910",4,3,2,1,3,2,1,2,1,0.587643583591833
"1911",4,2,1,1,4,0,1,3,1,1.00292688682093
"1915",5,6,1,1,0,0,1,4,1,0.969988077056149
"1916",2,2,1,2,2,0,0,1,2,-0.747154148370185
"1918",2,4,2,1,4,2,2,4,1,0.987279256863799
"1919",3,3,2,1,2,0,1,4,2,0.52339503804986
"1922",4,3,1,1,2,1,1,4,1,0.412938712814464
"1923",0,6,1,3,2,0,1,3,1,0.0410523629424358
"1927",4,0,2,1,3,0,1,4,1,0.221590757422676
"1929",5,3,2,1,0,0,1,2,1,0.979729541657779
"1931",4,2,1,1,2,0,1,4,1,0.553707698841934
"1933",3,1,2,1,2,2,1,2,1,0.846060678775974
"1935",4,0,1,1,2,0,1,2,1,0.687876782697902
"1936",5,0,2,1,2,0,1,2,1,0.82835487749663
"1937",4,1,1,1,3,0,1,1,2,-1.03453284739011
"1938",4,6,1,1,2,2,2,4,1,0.83783261459266
"1944",4,2,1,1,2,2,1,3,1,0.843412310437948
"1945",4,1,2,1,3,0,2,4,2,0.592285706426739
"1946",4,1,3,1,2,0,2,5,1,9.74079144274779
"1956",4,1,2,1,0,2,1,2,1,0.772663078310059
"1957",4,1,1,1,2,2,0,2,2,0.914329441108584
"1959",5,1,4,1,3,0,1,4,1,0.479030719465529
"1960",4,4,1,1,0,0,1,3,1,0.824248303137945
"1962",2,9,1,2,3,1,1,5,1,9.49779828908314
"1970",4,1,1,1,0,0,1,2,2,0.911456088838393
"1971",5,3,2,1,3,0,2,4,1,0.873475327162773
"1972",5,3,2,1,3,0,0,2,1,0.831447720539536
"1975",1,6,2,1,1,0,1,4,2,-0.0629979722554472
"1977",4,4,2,1,1,0,0,4,2,-0.268041150403723
"1982",4,2,3,1,3,0,1,4,2,0.155745792840817
"1986",4,3,4,1,0,0,1,3,2,0.381828121717394
"1987",2,9,1,1,3,0,1,3,1,0.493295035361544
"1988",5,6,1,1,2,0,1,4,2,0.934205240317384
"1992",3,2,1,1,2,2,1,3,1,0.952592747642628
"1993",3,10,1,1,1,2,0,3,2,-0.00773336140846919
"1994",5,2,3,1,4,0,1,2,2,0.996147646686063
"1998",3,2,2,1,2,1,1,2,2,0.41211775354106
"1999",4,1,2,1,3,0,0,4,2,0.373920258445043
"2000",3,3,1,1,2,0,1,4,2,0.736311205966508
"2003",1,1,2,1,1,2,1,3,2,0.345231072479728
"2004",5,1,1,1,1,0,0,2,1,0.601058520136448
"2007",5,1,2,1,2,0,1,3,1,1.0553949597476
"2010",5,4,2,1,2,0,1,4,2,0.71336210699021
"2011",5,2,1,1,1,0,1,5,1,9.49404737766339
"2013",5,1,1,3,1,0,1,4,2,0.370447246631666
"2015",4,1,1,1,3,0,1,2,2,0.798641236099508
"2018",2,0,2,1,4,0,1,4,1,0.66891254902111
"2023",5,5,4,1,2,0,1,4,1,0.772005945954942
"2024",5,1,2,1,2,0,1,3,2,1.0553949597476
"2026",3,2,1,1,2,2,1,5,1,9.91649873584021
"2030",5,3,1,1,2,0,1,4,1,0.980525031477204
"2031",3,3,1,1,0,2,1,3,1,1.06179865430129
"2036",4,3,1,1,-1,2,1,4,1,0.665369846070448
"2037",2,2,2,1,3,1,2,2,1,0.54545582176562
"2040",0,7,1,1,0,0,1,3,1,0.186383695148761
"2041",5,2,2,3,2,0,2,4,2,0.787343872717318
"2042",4,6,2,1,3,1,1,2,2,0.253008579096334
"2043",3,3,1,1,2,2,1,4,1,0.810434363354823
"2046",5,0,1,1,2,0,1,2,1,1.04127104541328
"2050",4,5,3,1,3,0,2,4,1,0.700215194831683
"2053",4,3,1,1,0,2,1,4,1,0.737036762888908
"2054",5,1,2,1,2,0,2,4,1,1.02271198514223
"2056",4,6,2,1,1,2,1,4,1,-0.150524059225523
"2060",4,1,1,1,3,0,1,4,1,0.62230339474105
"2061",5,4,1,1,0,0,1,2,1,1.13839895300408
"2062",1,9,2,1,2,0,1,2,1,0.343164473127144
"2064",3,3,1,3,2,2,0,4,1,0.685226994449783
"2065",3,4,3,1,0,0,1,4,1,0.396917396133929
"2066",5,2,1,1,2,0,1,4,1,0.907101961557311
"2068",4,4,1,1,2,0,1,4,2,0.572884012191482
"2078",4,0,1,1,4,0,1,2,2,0.921514516469194
"2081",4,5,2,1,3,1,0,2,1,0.552009254345431
"2082",4,4,2,1,2,0,1,4,1,0.359967844274833
"2084",3,1,1,3,3,0,1,3,2,0.857324885627746
"2085",4,2,4,1,2,0,0,4,1,0.0215737924716791
"2091",5,1,1,1,2,0,1,3,1,1.26831112766424
"2095",5,1,2,1,2,0,1,4,2,0.839813505539898
"2101",4,1,1,1,0,0,0,2,1,0.875989120459035
"2110",5,5,4,1,2,0,1,4,1,0.772005945954942
"2124",5,4,2,1,0,0,1,5,1,9.92863238613425
"2129",5,2,1,1,2,0,1,2,1,1.08343980291577
"2132",4,3,2,1,0,0,1,2,1,0.626335278942403
"2133",5,3,1,1,0,0,1,4,1,1.01630786821597
"2134",3,1,1,1,2,0,1,5,1,9.98800329035113
"2136",4,10,3,1,3,0,1,4,2,-0.176571321531724
"2137",5,2,1,1,0,0,1,4,1,0.942884798296076
"2140",4,3,2,1,2,0,1,4,1,0.41421460084518
"2141",4,1,2,1,2,2,1,3,1,0.776123854420535
"2143",3,2,3,1,2,2,1,4,2,0.416081403433931
"2145",4,6,2,1,3,0,0,4,1,0.255395825305882
"2149",4,1,1,1,0,0,1,4,1,0.735118247479935
"2150",4,3,1,1,0,0,1,2,1,0.839251446859051
"2152",1,2,1,1,3,0,1,3,1,0.853906381407904
"2154",4,3,1,1,3,0,1,4,2,0.550098752761708
"2155",5,3,3,1,0,0,1,4,1,0.695377978214971
"2156",2,2,3,1,3,0,1,4,1,0.292397834667839
"2157",4,2,1,1,0,2,0,5,1,9.80763416699494
"2160",4,2,1,1,2,2,2,2,1,0.987067177191045
"2163",5,1,4,1,2,0,1,2,2,0.732400576824107
"2165",5,2,3,1,3,0,1,3,2,0.724721509763892
"2169",0,1,1,1,3,0,1,5,1,9.13619116880474
"2172",3,9,1,1,1,0,0,2,1,-0.124397160788475
"2176",4,5,1,1,2,0,1,4,1,0.915278621230463
"2177",4,2,1,1,1,0,2,2,1,0.320401993503532
"2178",5,0,2,1,3,0,0,2,2,0.715855893117152
"2179",1,1,3,1,2,0,1,1,2,-1.1167814770326
"2184",2,7,2,3,0,0,1,3,1,0.685978836875043
"2187",3,6,4,1,2,0,2,4,2,0.376222956418127
"2188",2,6,2,2,2,0,1,2,2,0.935674014342215
"2191",5,4,2,1,2,0,2,3,2,1.11184204080025
"2194",4,2,1,1,3,0,1,2,1,0.653013524200273
"2196",4,3,1,1,2,0,1,3,2,0.842712222969527
"2200",3,1,4,1,2,2,1,4,1,0.385972067343266
"2203",5,0,1,1,0,0,1,2,1,1.07705388215204
"2204",4,4,1,1,2,0,1,3,2,0.78846546639918
"2205",5,5,2,1,3,0,1,4,2,0.978724700029071
"2206",5,2,1,1,2,0,1,2,2,1.08343980291577
"2213",5,2,1,1,3,0,0,3,1,1.01018443138553
"2214",4,2,1,1,3,0,0,4,1,0.441208714462457
"2216",5,2,1,1,2,0,1,3,1,1.12268341576501
"2220",4,12,1,1,0,0,1,3,1,0.164307180613393
"2222",4,3,1,1,2,2,1,4,2,0.701253926150143
"2226",5,3,2,1,3,0,0,5,1,9.83459732158636
"2230",5,2,2,2,2,0,1,2,1,1.1253129564705
"2235",4,3,1,2,2,0,1,4,1,0.881920090233203
"2236",5,1,1,1,3,0,0,3,1,1.15581214328477
"2237",1,4,1,1,2,0,1,3,1,0.950114710757571
"2238",5,1,1,1,2,0,0,4,2,1.01726270507719
"2239",5,2,2,1,2,0,1,4,1,0.694185793640663
"2242",4,2,1,1,4,2,2,3,1,1.25994852381158
"2247",4,2,3,1,3,0,2,4,1,0.338644272443154
"2248",2,8,3,1,0,0,1,1,2,-1.2915304508473
"2250",5,2,2,3,2,0,0,3,1,0.784559878943322
"2253",4,2,2,1,1,0,0,4,1,-0.28721746375327
"2255",4,4,3,1,2,0,2,4,2,0.434852601792821
"2259",4,1,2,1,2,0,2,5,1,9.84880516483214
"2261",5,1,1,1,3,0,1,4,1,0.975697657456426
"2263",5,1,3,1,3,0,1,2,1,0.831105608813887
"2266",3,2,1,1,3,1,1,2,1,0.548001905457588
"2267",4,1,1,3,2,0,1,2,2,0.785932851573946
"2270",4,6,1,1,0,0,1,2,1,0.792931655699231
"2272",5,0,1,1,0,0,1,3,1,1.11629749500128
"2273",4,3,2,1,0,0,1,2,2,0.626335278942403
"2274",5,3,1,1,0,0,1,2,2,1.19264570957443
"2275",4,3,2,1,-1,0,0,3,2,0.558445006593825
"2277",4,1,3,1,2,0,1,2,1,0.55474336209863
"2278",3,2,3,1,3,0,2,5,1,9.62731215205311
"2282",4,0,2,1,2,0,1,4,2,0.298622773422796
"2285",4,7,1,1,1,0,0,3,1,0.18819153207303
"2288",5,1,2,1,3,0,1,3,2,0.978362943747476
"2292",4,4,2,1,3,2,1,2,1,0.533396827021487
"2294",2,2,1,1,3,0,1,4,1,0.613327724668837
"2296",3,4,1,1,2,0,1,2,1,0.858402290754619
"2298",2,2,1,1,3,0,1,4,1,0.613327724668837
"2299",3,1,2,1,1,0,2,3,1,0.401537587540039
"2304",5,2,1,1,1,0,1,4,2,0.314559935258113
"2305",5,3,2,1,0,0,1,2,1,0.979729541657779
"2306",1,0,3,1,4,0,1,2,1,0.762233870826588
"2309",1,2,2,1,0,0,1,4,2,0.538223612022442
"2310",1,1,4,1,3,0,1,4,1,0.287285701108543
"2311",4,7,3,1,1,0,0,2,2,-0.171981970777208
"2312",4,5,1,1,-1,0,0,4,2,0.843927572771409
"2315",0,1,3,1,1,0,1,4,2,-0.879736173900616
"2317",5,4,3,1,0,0,1,3,1,0.856712675852324
"2319",5,4,1,1,0,0,2,5,1,10.3244470336532
"2323",4,5,2,1,4,0,2,2,1,1.2952365080459
"2324",2,3,1,1,1,2,1,4,2,0.245363941677967
"2327",4,0,1,1,3,0,1,1,1,-1.22232931679183
"2330",4,5,1,1,0,0,1,3,2,1.16664291217693
"2334",3,3,1,1,2,2,1,4,1,0.810434363354823
"2335",4,2,2,1,1,2,1,4,1,-0.177627337985597
"2341",4,5,1,1,2,2,2,4,1,1.17230025822111
"2342",4,6,1,1,0,0,1,4,1,0.616593814340773
"2345",3,2,1,1,2,0,1,2,1,0.839225977405072
"2348",5,0,1,1,3,0,1,2,1,0.964239029413158
"2349",3,4,1,1,-1,1,1,4,2,0.431988313369102
"2351",5,1,1,1,3,0,1,4,1,0.975697657456426
"2357",5,1,1,1,3,0,1,2,1,1.15203549881488
"2359",4,3,2,1,0,0,2,4,2,0.632895917186282
"2361",4,4,1,1,3,0,1,4,1,0.495851996191362
"2362",1,2,2,1,4,0,2,4,1,0.918976988657306
"2366",4,4,2,1,2,1,0,4,1,0.110308819948111
"2367",5,0,3,1,0,0,1,2,2,0.756123992151046
"2371",4,4,1,1,2,0,1,2,2,0.74922185354994
"2380",5,2,1,1,0,0,1,2,1,1.11922263965453
"2381",0,1,3,1,2,2,2,2,1,0.146165330747692
"2383",4,4,1,1,3,0,0,4,2,0.460385027812004
"2384",5,1,1,1,2,0,2,3,2,1.45120960726658
"2385",4,1,2,1,1,0,1,4,2,-0.106122783474676
"2387",2,2,1,3,2,2,1,2,1,0.851080338890048
"2395",4,2,1,2,2,1,1,4,1,0.594304964365946
"2396",4,4,1,1,2,0,1,4,1,0.572884012191482
"2398",3,9,1,1,2,2,1,2,1,0.577734991278396
"2399",5,2,2,1,3,0,1,5,1,9.79664122004582
"2400",4,7,1,1,2,0,1,3,1,0.816200526751586
"2401",5,1,3,1,3,0,1,4,2,0.654767767455429
"2406",5,4,1,1,0,0,1,3,1,1.17764256585332
"2407",4,1,1,2,2,0,1,4,1,0.954124732212545
"2409",4,5,2,2,4,0,1,1,1,-0.466046733574677
"2412",4,1,1,1,0,0,1,3,1,0.950699701687634
"2413",1,0,2,1,2,0,1,2,1,0.636609859139645
"2414",4,2,1,1,1,0,1,4,2,-0.0388343274572633
"2419",2,3,1,1,2,2,1,3,2,1.05348742218486
"2420",3,2,2,1,2,2,1,2,1,0.700432966876739
"2421",3,1,1,3,2,2,1,2,1,0.969236446166941
"2422",5,2,2,1,3,0,1,5,1,9.79664122004582
"2425",4,3,1,1,1,2,1,4,2,0.108711899850945
"2427",4,1,1,1,2,2,1,3,2,0.989040022337183
"2431",5,1,2,1,2,0,0,4,2,0.804346537160539
"2434",3,3,2,1,3,2,1,5,1,9.69997362184333
"2436",3,3,0,1,2,2,0,1,1,0.874129510127037
"2439",5,2,1,2,2,0,1,4,2,1.16189128302869
"2440",2,5,1,1,2,0,1,4,1,1.05193066305749
"2443",1,3,1,1,2,2,1,2,1,1.03924101186699
"2448",3,2,2,1,0,2,1,2,1,0.736215803615504
"2449",1,1,1,1,2,2,1,5,1,10.1145952548932
"2452",1,3,3,1,2,0,1,1,1,-1.18898611901194
"2453",5,6,2,1,3,0,1,2,1,0.820594897759074
"2456",4,0,1,3,3,0,1,4,2,0.344766524813643
"2458",4,1,1,1,1,0,0,2,1,0.247664257421072
"2462",3,3,2,1,3,0,1,4,2,0.44636302204974
"2463",1,1,2,1,2,0,0,2,2,0.788939360162012
"2465",5,1,4,1,1,0,2,4,1,0.146419188768788
"2466",5,2,3,1,2,0,2,4,1,0.76907055115865
"2468",5,1,2,1,2,0,1,2,1,1.01615134689836
"2471",4,3,2,1,2,0,1,4,2,0.41421460084518
"2472",5,1,1,1,3,0,1,4,1,0.975697657456426
"2475",5,3,1,1,2,0,1,3,1,1.1961064856849
"2481",5,3,2,1,3,0,1,4,1,0.690576847560436
"2485",5,2,1,1,1,0,1,4,2,0.314559935258113
"2488",4,1,1,1,2,0,1,2,1,0.875673252099628
"2493",5,2,2,1,2,0,0,3,2,0.874300279469003
"2495",5,3,2,1,2,0,1,3,1,0.983190317768255
"2496",4,4,2,1,1,0,0,2,1,-0.0917033090452645
"2507",4,5,1,1,1,0,1,5,1,9.50222403733654
"2508",2,1,2,2,1,2,1,3,2,0.575023191419734
"2510",4,4,3,1,0,0,1,3,1,0.503318413136948
"2511",4,3,4,1,-1,2,1,5,1,9.34819035048483
"2513",3,1,1,1,3,0,0,4,2,0.696016863566371
"2518",4,2,3,0,-1,0,0,5,1,9.93145749138487
"2520",4,1,2,1,4,2,2,3,1,1.19266006779416
"2522",4,3,2,1,2,1,1,5,1,9.37950998730309
"2528",2,2,2,1,2,0,1,2,1,0.653781414110767
"2529",3,3,2,1,0,0,1,3,1,0.774759328996323
"2531",5,0,2,1,4,0,1,3,1,1.10123622411716
"2535",0,8,2,1,1,2,1,5,1,8.29635353995523
"2539",4,3,3,2,3,0,1,4,2,0.483958184232086
"2542",3,1,1,1,-1,0,0,3,1,0.952746253694494
"2545",3,3,1,1,3,2,1,3,1,0.948983801562401
"2547",3,3,1,1,2,0,0,4,2,0.700844237587149
"2548",3,2,2,1,1,2,1,4,1,-0.0684469007809173
"2551",4,3,1,1,2,0,1,4,1,0.627130768761828
"2552",3,1,3,1,4,0,2,4,2,0.90412217131848
"2554",4,4,1,1,0,0,1,4,1,0.608666848930246
"2558",5,2,4,1,2,0,1,4,1,0.410435023566413
"2560",5,2,1,3,-1,0,0,2,2,0.922348353931034
"2561",4,6,1,1,2,2,1,2,1,0.831271976348781
"2564",3,4,1,1,3,0,1,2,2,0.7813702747545
"2570",4,3,1,1,0,0,1,3,1,0.878495059708292
"2571",5,4,3,1,2,0,1,2,1,0.781686226264319
"2574",5,2,1,3,0,0,1,2,1,1.02948223912885
"2576",5,2,1,1,3,0,1,4,1,0.830069945557191
"2578",5,2,2,3,2,0,1,4,1,0.604445393114981
"2579",4,5,1,1,3,0,1,1,1,-0.818589636900816
"2582",5,2,1,1,0,0,1,4,1,0.942884798296076
"2587",5,4,1,1,3,0,1,3,1,1.06482771311444
"2589",3,0,1,1,3,0,1,4,1,0.543687362544004
"2590",2,4,2,1,1,1,1,4,1,-0.310114196144706
"2592",4,3,1,1,0,2,1,3,1,0.952618217096606
"2597",2,9,1,1,1,0,1,3,2,-0.0222149749375337
"2599",4,3,1,1,2,2,1,3,1,0.916835380357842
"2600",4,1,2,1,2,0,1,4,1,0.486419242824521
"2602",4,3,1,1,4,0,1,2,1,1.03710634389158
"2605",5,0,1,1,2,0,1,2,1,1.04127104541328
"2606",4,2,2,1,2,0,1,4,2,0.340791530925286
"2608",4,4,2,1,2,2,2,4,1,0.616989481265485
"2621",2,0,2,1,2,0,1,1,2,-1.22156142688134
"2622",5,1,1,1,0,0,1,2,1,1.26485035155377
"2623",5,3,3,1,3,0,1,4,2,0.582563125476087
"2624",1,6,1,1,3,0,1,1,2,-0.991408036170879
"2625",3,1,1,1,2,2,2,2,1,1.24187532629496
"2626",1,6,2,1,2,0,1,4,2,0.529544054043751
"2627",2,1,2,1,4,0,2,2,1,1.21594533938363
"2628",0,1,2,1,1,1,1,4,2,-0.985914507763631
"2629",4,3,2,1,2,0,1,4,2,0.41421460084518
"2630",4,6,1,1,0,0,1,3,2,0.832175268548472
"2631",4,0,2,1,0,0,1,1,2,-1.3224306319696
"2632",4,0,1,1,3,0,0,1,2,-1.25779628517119
"2633",5,3,2,1,4,0,2,2,1,1.36048291829264
"2637",4,4,2,2,0,0,1,4,1,0.650540002484973
"2646",1,3,1,1,3,0,1,3,1,0.927329451327798
"2648",1,0,3,1,3,0,1,2,2,0.451564121055176
"2651",4,1,1,1,0,0,1,5,1,9.91460568988522
"2654",1,1,1,3,2,0,1,4,1,0.771244254573879
"2655",5,3,3,1,2,0,2,4,2,0.842493621078544
"2656",1,0,1,2,2,0,1,2,1,1.10431534852767
"2658",4,1,2,1,0,0,1,2,1,0.698539920921745
"2664",5,4,2,1,3,0,1,3,2,0.851911545197789
"2669",4,1,1,1,2,0,1,2,2,0.875673252099628
"2671",5,1,1,1,3,0,1,3,2,1.19127911166412
"2677",4,6,2,2,3,0,0,4,1,0.510185146777257
"2679",4,3,1,1,1,0,1,4,2,0.0345887424626299
"2682",1,2,1,3,2,0,2,3,2,1.02409647648468
"2683",3,5,1,2,2,0,1,4,2,1.27924837990652
"2684",4,2,3,1,3,0,1,4,2,0.155745792840817
"2693",4,1,1,1,3,0,1,2,1,0.798641236099508
"2695",4,10,1,1,0,0,1,5,1,9.43666086361344
"2698",4,1,2,1,2,2,2,2,1,0.919778721173631
"2699",4,2,2,1,3,1,1,4,2,0.0495674589778026
"2703",4,3,1,1,0,0,1,2,1,0.839251446859051
"2704",4,5,1,1,1,0,0,4,2,0.287269626551907
"2706",4,0,1,1,1,0,0,2,2,0.059867788019346
"2712",4,2,2,1,2,2,1,2,1,0.59125252967206
"2713",3,3,2,1,1,2,1,4,1,0.0049761691389764
"2717",3,3,1,1,0,0,1,2,1,0.948431884063731
"2719",4,2,2,1,3,0,2,2,1,0.622995835885962
"2727",4,4,1,1,3,2,2,4,1,0.752873633182014
"2728",4,7,4,1,1,0,1,4,2,-0.488589891746208
"2729",5,1,1,1,2,0,1,4,1,1.05272967345655
"2731",5,3,2,1,0,0,2,4,1,0.986290179901658
"2739",2,9,1,1,0,0,1,2,2,0.566866275251188
"2740",4,5,2,1,1,2,1,3,2,0.39952503861063
"2741",1,0,1,1,3,0,0,2,1,0.737027042676815
"2742",2,2,1,1,2,0,1,3,1,0.905941194876655
"2743",4,4,1,1,3,0,0,2,1,0.636722869170462
"2746",5,0,2,2,3,0,1,4,2,0.829774341609427
"2747",4,2,1,1,3,0,1,5,1,9.6561631252471
"2748",4,7,2,1,3,2,1,2,2,0.561131887373892
"2749",3,3,1,1,0,2,2,3,1,1.24469713390362
"2751",5,0,1,1,3,0,1,2,1,0.964239029413158
"2752",3,4,1,1,1,0,1,3,2,0.305103877304662
"2753",4,4,2,1,2,0,1,3,1,0.575549298482532
"2754",4,5,1,2,2,0,0,4,1,1.13460097432248
"2755",5,1,2,1,3,0,1,4,1,0.762781489539778
"2758",5,2,2,1,3,0,1,2,2,0.793491618999001
"2760",4,3,1,1,1,0,2,2,2,0.393825063423425
"2762",3,1,1,1,2,0,0,4,2,0.773048879566491
"2765",3,2,1,1,3,0,1,4,1,0.585856120046494
"2768",2,5,3,1,0,0,1,2,2,0.943121451153711
"2769",4,3,1,1,1,0,0,3,2,0.214703228290971
"2777",5,0,3,1,2,0,1,3,1,0.759584768261522
"2780",3,7,4,1,4,0,1,3,1,0.66235175973666
"2782",0,3,4,1,4,2,1,2,1,-0.0510371050525939
"2785",3,3,1,1,0,0,1,1,2,-0.884742199425886
"2786",4,4,2,1,2,0,1,3,2,0.575549298482532
"2787",3,2,1,1,2,0,1,4,1,0.662888136046614
"2788",4,4,1,1,2,0,1,3,2,0.78846546639918
"2789",5,3,2,1,3,0,1,4,1,0.690576847560436
"2790",4,0,1,1,2,0,1,2,1,0.687876782697902
"2794",5,1,2,1,3,0,2,3,1,1.16126142334981
"2799",4,5,2,1,3,0,1,3,1,0.840911891521393
"2801",1,1,1,1,2,0,1,3,1,1.07656610930726
"2805",3,4,1,1,0,0,1,4,1,0.717847286134926
"2810",1,1,1,1,2,0,0,3,1,1.0410991409279
"2812",2,2,1,1,0,0,1,2,2,0.90248041876618
"2813",5,1,3,1,3,0,1,3,1,0.870349221663127
"2814",0,7,1,1,1,0,0,3,2,-0.47740813626856
"2815",5,0,2,1,2,0,1,3,1,0.867598490345871
"2816",1,5,1,2,1,2,1,4,2,0.813298318149346
"2819",5,2,3,1,3,0,2,5,1,9.87152597756381
"2820",2,1,2,1,4,0,2,4,2,1.03960749802517
"2822",4,4,2,1,3,0,2,2,1,0.642172149235509
"2825",4,1,1,1,2,1,1,2,1,0.661481196152264
"2827",2,1,3,1,4,0,2,5,1,10.1110812183461
"2828",2,1,1,1,-1,0,0,3,1,0.980217858316837
"2829",1,1,2,1,3,0,0,3,1,0.751150957011133
"2831",4,3,1,2,2,0,1,4,1,0.881920090233203
"2832",4,0,1,1,3,0,1,3,1,0.650088379547023
"2833",4,2,1,1,2,0,0,4,1,0.518240730462576
"2834",5,1,1,1,4,0,1,3,1,1.50194886143554
"2835",5,2,4,1,2,0,1,4,2,0.410435023566413
"2840",4,6,1,1,1,0,0,4,1,-0.0471980170765481
"2842",4,2,1,1,1,0,1,4,2,-0.0388343274572633
"2843",4,4,1,1,0,1,1,1,2,-1.26236144914828
"2844",3,4,4,1,3,2,1,3,2,0.398070107001158
"2848",0,1,1,1,3,2,1,4,1,0.0308268837877749
"2850",5,1,2,1,4,0,2,4,1,1.25634971891353
"2853",4,2,1,1,2,0,1,4,2,0.553707698841934
"2856",5,3,1,1,3,0,1,1,2,-0.753343226654074
"2858",5,2,1,1,3,0,1,4,1,0.830069945557191
"2866",4,2,2,1,-1,0,0,2,1,0.445778323824691
"2867",5,2,2,3,2,0,1,3,1,0.82002684732268
"2868",0,4,1,1,3,0,1,2,1,0.0065901692082304
"2873",4,0,2,1,4,2,1,2,1,0.782721505940861
"2875",3,2,1,1,0,0,1,4,1,0.698670972785379
"2876",2,2,2,1,1,0,1,4,2,-0.115098453546889
"2878",3,3,1,1,1,0,0,3,2,0.323883665495651
"2880",5,3,1,1,2,0,1,4,1,0.980525031477204
"2882",5,2,2,1,2,0,2,4,1,0.877084273242999
"2887",3,1,1,1,1,0,2,2,1,0.575210142607446
"2892",4,4,4,1,0,0,1,4,2,0.111999910939349
"2893",3,2,1,1,2,0,1,5,1,9.84237557845189
"2894",5,2,1,1,3,0,1,5,1,10.0095573879625
"2897",5,1,2,1,4,0,2,3,2,1.47193117312123
"2898",3,2,3,1,2,0,1,2,1,0.518296087404075
"2899",2,1,1,1,3,2,1,4,2,0.833078593956386
"2902",5,4,1,1,3,0,1,4,1,0.849246258906738
"2905",5,1,2,1,4,0,2,4,1,1.25634971891353
"2907",4,1,1,1,2,0,1,3,2,0.914916864948868
"2908",4,4,1,1,2,0,1,3,2,0.78846546639918
"2912",5,2,2,2,1,0,1,5,1,9.53592053121812
"2913",4,4,1,1,0,0,1,2,1,0.785004690288705
"2915",2,5,4,1,1,2,0,3,2,0.216959341984045
"2916",4,11,2,1,3,0,1,4,1,1.0381365300867
"2917",1,1,1,1,3,0,1,4,1,0.78395263909944
"2918",3,3,1,1,2,2,1,4,1,0.810434363354823
"2919",4,2,1,1,0,0,1,4,1,0.5894905355807
"2921",2,1,1,1,0,2,1,1,2,-0.710942795435888
"2924",4,4,1,1,0,2,1,3,1,0.89837146052626
"2926",3,4,1,1,2,0,1,4,1,0.682064449396161
"2927",4,4,1,1,2,0,1,2,1,0.74922185354994
"2928",4,4,1,1,2,0,0,4,1,0.537417043812123
"2930",2,1,2,1,1,2,1,2,2,0.280990257099118
"2931",3,2,1,1,2,1,1,3,1,0.664277534306949
"2934",3,3,2,1,2,0,1,4,2,0.52339503804986
"2937",4,11,1,1,-1,0,0,4,1,1.25673366554442
"2938",4,1,2,1,4,0,1,4,1,0.720056976595814
"2939",4,2,1,1,1,2,1,4,1,0.0352888299310514
"2943",4,1,3,1,2,0,1,2,2,0.55474336209863
"2944",1,6,1,1,3,0,1,3,1,0.881009660167978
"2946",4,6,3,1,-1,0,0,4,2,0.188530039141957
"2951",4,4,1,1,2,0,1,3,2,0.78846546639918
"2955",5,3,3,1,2,0,1,4,1,0.659595141476207
"2957",5,6,2,1,3,0,1,4,2,0.644257056400616
"2959",4,1,1,1,3,0,1,4,1,0.62230339474105
"2961",1,7,4,1,1,0,0,4,2,-0.362407615767175
"2968",4,5,2,1,2,0,1,2,2,0.878700294672273
"2972",2,4,3,1,1,0,1,4,2,-0.203935862281692
"2973",5,3,1,1,2,0,1,3,1,1.1961064856849
"2974",5,1,2,1,3,0,1,2,2,0.939119330898236
"2975",5,1,2,1,2,0,1,3,1,1.0553949597476
"2979",4,3,2,1,3,0,1,4,2,0.33718258484506
"2980",4,5,1,1,0,0,1,3,2,1.16664291217693
"2981",5,4,1,1,2,0,1,3,1,1.14185972911456
"2984",1,4,2,1,3,0,1,3,2,0.660166526840803
"2986",4,3,1,1,4,0,1,2,1,1.03710634389158
"2987",4,4,1,1,2,2,1,4,1,0.647007169579796
"2989",4,5,1,1,3,2,0,2,1,1.05324063559776
"2998",5,2,2,1,0,0,1,2,1,0.906306471737886
"3000",3,1,2,1,3,2,1,4,1,0.592690821417396
"3002",3,0,2,1,0,0,1,2,2,0.619923888724699
"3005",5,2,2,2,2,0,1,2,1,1.1253129564705
"3006",3,5,2,1,1,2,1,2,2,0.469461862966069
"3007",4,2,4,1,2,0,1,4,1,0.0570407608510377
"3013",4,1,1,1,3,0,1,3,1,0.837884848948748
"3015",4,3,1,1,2,1,0,3,1,0.593053198642804
"3024",1,8,2,1,1,0,1,4,2,-0.130008147138387
"3031",5,1,2,1,0,0,1,4,1,0.875596342278663
"3032",4,1,3,1,1,2,1,2,2,0.0363244931877471
"3035",3,3,2,1,0,1,1,3,1,0.560567273048959
"3036",3,3,3,1,2,2,2,4,2,0.672402952956162
"3037",4,3,3,1,2,0,1,2,1,0.482538720119289
"3038",2,3,4,1,2,0,1,4,1,0.267115872597953
"3039",4,4,1,1,1,0,1,4,2,-0.0196580141077161
"3040",3,3,1,2,2,1,1,3,2,0.992489925698218
"3043",4,1,2,1,0,2,1,1,2,-1.06051100517956
"3047",3,3,2,1,1,0,2,4,1,0.113751491352999
"3051",3,6,0,1,1,2,0,2,1,2.06844177615764
"3055",5,3,3,1,2,0,2,4,2,0.842493621078544
"3057",4,4,1,1,2,2,1,4,2,0.647007169579796
"3058",2,2,1,1,2,0,1,4,1,0.690359740668957
"3059",4,2,1,1,-1,0,0,2,2,0.658694491741339
"3061",1,5,2,1,2,0,1,2,1,1.04034953903066
"3065",3,5,1,1,0,0,1,3,1,1.27582334938161
"3068",5,1,1,1,0,0,1,2,1,1.26485035155377
"3071",4,0,1,2,3,0,0,2,1,0.830167119789799
"3072",1,3,1,1,1,0,2,1,1,-1.2776997757078
"3075",1,4,1,1,0,0,1,2,1,0.946653934647096
"3079",5,6,3,1,3,0,2,4,1,0.719141813918604
"3081",4,4,1,1,0,0,1,2,1,0.785004690288705
"3082",3,1,1,1,1,0,2,3,1,0.614453755456687
"3084",2,3,3,1,3,0,1,4,2,0.365820904587733
"3086",2,3,2,1,3,2,1,1,2,-1.10887845807076
"3087",3,3,1,1,2,2,1,3,2,1.02601581756252
"3088",4,0,2,1,2,0,1,2,2,0.474960614781254
"3089",4,2,1,1,3,2,2,5,1,9.91318476223775
"3092",2,1,1,1,0,0,1,1,1,-0.785065952824202
"3093",2,1,1,1,0,2,1,1,1,-0.710942795435888
"3094",5,0,1,1,3,0,1,4,1,0.7879011880547
"3107",4,5,1,1,0,0,1,1,2,-0.705774784161931
"3109",4,2,3,1,1,0,1,4,2,-0.359764217458261
"3113",5,5,1,1,1,0,0,4,1,0.640663889267283
"3115",3,2,2,1,2,2,2,4,2,0.706993605120618
"3116",4,2,2,1,0,2,1,2,1,0.627035366410824
"3118",5,2,2,1,3,0,1,4,1,0.617153777640543
"3122",5,2,1,1,1,0,0,2,2,0.455430808237213
"3126",4,3,1,1,2,0,1,4,2,0.627130768761828
"3127",3,6,1,1,0,0,1,4,1,0.725774251545453
"3128",5,1,1,1,0,0,1,4,1,1.08851251019531
"3129",5,4,2,1,2,0,1,4,2,0.71336210699021
"3133",4,1,4,1,2,0,1,2,2,0.379006314108731
"3136",3,2,2,1,-1,0,1,4,2,0.414087888050271
"3139",5,1,3,1,2,0,1,4,1,0.731799783455548
"3141",3,2,2,1,2,0,0,1,2,-1.24233124238055
"3142",3,2,1,1,2,0,1,1,2,-0.993948106084545
"3143",3,2,1,2,2,2,1,3,2,1.207382069114
"3146",3,1,1,1,2,0,1,4,1,0.808515847945849
"3149",4,10,2,1,4,0,1,2,2,0.418449991682496
"3151",3,2,1,1,4,2,2,1,2,-0.503288735322601
"3152",5,0,3,1,4,0,2,4,1,0.960539527427452
"3153",5,1,2,1,2,0,1,4,2,0.839813505539898
"3154",5,4,1,1,3,0,1,3,2,1.06482771311444
"3156",0,11,1,3,2,1,2,4,1,0.541451068791171
"3158",5,0,1,1,3,0,1,2,2,0.964239029413158
"3160",4,2,1,1,3,0,1,4,1,0.476675682841815
"3164",3,5,1,1,1,0,0,3,1,0.612031517964285
"3167",3,1,2,1,3,0,1,5,1,9.69805510643436
"3169",4,2,1,1,2,2,1,4,1,0.627830856230249
"3175",4,2,1,0,-1,0,0,5,1,10.2523873813859
"3178",2,2,1,1,3,0,1,2,1,0.789665566027295
"3180",3,2,2,1,3,2,1,2,1,0.623400950876619
"3187",4,6,3,1,2,0,1,3,2,0.475462541808709
"3188",2,5,3,1,2,0,1,4,1,0.731000773056487
"3189",4,3,2,1,0,0,1,2,2,0.626335278942403
"3192",4,2,2,1,3,0,1,4,2,0.263759514925167
"3193",3,1,2,1,0,0,1,4,1,0.631382516767966
"3195",5,2,3,1,3,0,1,3,2,0.724721509763892
"3196",4,3,4,1,2,1,1,2,1,0.0926096161820248
"3197",5,2,2,1,3,0,1,4,2,0.617153777640543
"3198",4,3,3,1,2,0,1,3,1,0.521782332968529
"3204",4,2,1,1,2,0,1,3,2,0.769289153049633
"3206",4,6,2,1,0,0,1,2,2,0.580015487782583
"3211",5,3,2,1,2,0,1,4,1,0.767608863560556
"3212",3,6,1,2,2,0,1,4,2,0.944780736278063
"3215",5,2,1,1,3,0,1,2,1,1.00640778691565
"3220",2,5,1,3,0,2,1,2,1,1.24843409801734
"3221",4,2,2,1,1,2,1,4,1,-0.177627337985597
"3224",3,4,1,1,1,1,1,3,2,0.0909118213572983
"3226",2,11,1,1,0,0,2,3,2,1.89899952637929
"3230",4,2,1,1,3,0,1,2,1,0.653013524200273
"3231",5,5,2,1,0,0,1,3,1,1.30712100697565
"3234",2,0,1,1,2,0,1,2,1,0.824528824524924
"3235",3,1,1,1,3,2,2,3,1,1.20408692314408
"3236",2,1,1,3,2,0,1,2,2,0.922584893400968
"3238",5,2,4,3,2,0,1,3,1,0.536276077248431
"3239",3,2,2,1,0,1,1,4,2,0.271562748921367
"3242",3,3,1,1,2,1,1,2,1,0.698456991377602
"3243",3,4,2,1,2,0,1,2,1,0.645486122837971
"3244",2,4,4,3,2,0,1,5,1,9.3026161579072
"3245",4,4,3,1,3,2,1,4,1,0.249045263578679
"3248",3,3,2,1,2,0,1,3,1,0.738976492257558
"3250",1,1,2,1,1,0,0,4,1,0.0200594925043561
"3259",4,1,1,1,3,0,1,3,1,0.837884848948748
"3261",4,2,1,1,4,0,1,2,1,0.963683273971685
"3265",5,3,1,1,2,0,1,4,1,0.980525031477204
"3266",4,2,1,1,0,0,1,4,1,0.5894905355807
"3268",4,0,2,1,1,0,0,3,2,-0.113804767048061
"3269",3,2,1,1,2,2,0,4,1,0.701544325055571
"3271",5,1,2,1,3,0,1,5,1,9.94226893194506
"3276",5,2,3,1,4,0,2,1,2,-0.654127957201216
"3278",3,1,2,1,-1,2,0,3,1,0.813953243166161
"3279",3,3,3,1,1,0,0,2,2,-0.0362898373545878
"3284",4,3,1,2,0,0,1,4,2,0.917702926971968
"3293",4,2,1,1,1,0,2,2,1,0.320401993503532
"3295",3,3,1,1,0,2,1,3,1,1.06179865430129
"3296",1,1,1,1,1,0,1,4,2,0.268442628800362
"3299",4,0,2,1,3,0,0,4,1,0.186123789043318
"3300",3,2,2,1,1,1,1,4,2,-0.356762114116596
"3301",3,2,1,1,1,0,0,4,1,0.0348791413680581
"3302",4,2,1,1,1,2,1,5,1,9.21477627233633
"3303",4,2,3,0,-1,0,0,4,2,0.75197004897959
"3305",2,3,2,1,0,0,1,2,1,0.762987320769425
"3307",4,2,2,1,3,0,2,3,1,0.662239448735202
"3308",3,2,2,1,4,2,2,5,1,10.1201187812972
"3313",5,4,2,1,0,0,2,4,2,0.932043423331312
"3319",2,4,2,1,1,0,1,4,2,-0.0959221401973423
"3322",5,2,2,1,1,0,0,2,1,0.242514640320565
"3324",2,2,2,3,0,0,2,4,2,0.606384488567729
"3328",4,1,2,1,2,0,0,4,1,0.450952274445163
"3329",3,2,2,1,2,0,2,4,2,0.632870447732303
"3331",4,1,1,1,2,0,1,2,1,0.875673252099628
"3337",4,3,1,1,0,0,1,3,1,0.878495059708292
"3340",3,2,3,1,3,0,1,4,2,0.264926230045497
"3345",3,5,2,1,0,0,1,3,2,1.06290718146496
"3350",4,3,2,1,3,0,0,4,2,0.301715616465702
"3354",3,5,2,1,4,0,1,2,1,1.22151846564824
"3356",3,6,2,1,2,0,1,2,2,0.653413088248498
"3358",1,4,1,1,2,0,0,4,1,0.699066288170514
"3360",4,1,1,1,2,0,1,2,1,0.875673252099628
"3366",2,0,2,1,2,0,1,2,1,0.611612656608276
"3367",4,4,3,1,0,1,1,2,1,0.249882744340343
"3371",2,6,2,1,-1,0,0,2,2,0.609533644411787
"3377",4,2,1,1,3,2,1,4,1,0.55079884023013
"3378",3,4,2,2,3,0,1,3,1,0.862487041158467
"3381",4,2,1,1,2,2,1,4,1,0.627830856230249
"3385",3,7,2,1,3,0,1,4,1,0.419851325831799
"3386",4,0,2,1,4,0,2,4,1,0.715158986796425
"3387",4,5,2,1,3,0,1,3,1,0.840911891521393
"3388",4,4,1,2,0,0,1,2,1,1.03979401176008
"3389",5,3,1,2,2,0,1,3,1,1.45089580715628
"3390",4,1,1,3,0,0,1,2,2,0.821715688312711
"3391",5,2,2,1,0,0,1,4,1,0.729968630379427
"3393",4,2,1,1,2,0,1,3,1,0.769289153049633
"3394",4,1,2,1,2,1,1,2,1,0.448565028235615
"3400",5,3,1,1,1,0,0,3,1,0.568097491006347
"3401",5,0,1,2,4,0,1,3,1,1.56894171350519
"3405",3,1,1,1,0,0,2,3,2,1.24277861849465
"3410",4,5,0,1,-1,2,0,2,1,2.85038692880091
"3416",4,2,2,3,2,0,1,3,2,0.466632584607304
"3417",3,1,2,1,2,0,1,4,1,0.595599680029201
"3420",4,6,2,0,-1,0,0,4,1,0.887087049824013
"3422",4,9,2,1,3,2,1,2,1,0.178606370156949
"3423",4,8,1,1,0,2,1,4,1,0.623706796846148
"3424",4,4,2,1,-1,0,0,3,2,0.504198250023479
"3427",2,9,1,1,1,0,1,5,1,8.94169101326005
"3428",2,6,1,1,2,2,1,4,1,0.791586176817345
"3429",5,3,2,1,2,0,1,5,1,9.94709630596584
"3430",3,2,2,1,0,0,1,2,1,0.662092646227189
"3432",4,2,1,1,1,0,0,3,1,0.141280158371078
"3433",5,2,1,1,1,0,0,4,2,0.279092966878754
"3435",4,3,1,1,3,2,1,4,1,0.624221910150023
"3436",3,0,1,1,4,0,1,2,1,1.03069495367387
"3439",5,0,2,1,2,1,1,2,1,0.614162821549266
"3441",1,1,1,1,1,0,1,5,1,9.44793007120564
"3443",3,3,4,1,3,0,2,5,1,9.52499817398311
"3445",5,2,1,1,1,0,1,4,2,0.314559935258113
"3446",4,1,1,1,0,1,1,4,2,0.52092619153257
"3447",5,2,2,1,0,0,1,5,1,9.90945607278471
"3449",5,1,1,1,2,0,2,3,1,1.45120960726658
"3450",4,4,4,1,2,0,2,4,2,0.259115553802921
"3452",5,0,3,1,2,0,1,2,1,0.720341155412281
"3453",3,1,1,1,1,0,1,5,1,9.39546126405193
"3458",5,3,1,3,2,0,1,4,1,0.890784630951523
"3461",2,6,1,1,2,2,2,3,1,1.19006611062738
"3464",5,2,1,2,1,0,1,4,2,0.569349256729488
"3466",4,4,1,1,0,0,1,4,1,0.608666848930246
"3468",4,2,2,1,0,0,1,1,2,-1.28026187446711
"3470",5,2,1,1,2,0,1,3,1,1.12268341576501
"3471",5,3,3,2,3,0,1,4,2,0.837352446947462
"3472",2,3,3,1,3,0,2,2,2,0.725057225548528
"3473",5,1,1,3,2,0,1,2,1,1.13932711428932
"3474",2,4,1,1,2,2,2,2,1,1.14289553236761
"3475",5,0,1,1,2,0,1,3,1,1.08051465826252
"3477",5,2,2,1,1,0,1,4,2,0.101643767341465
"3479",0,4,1,1,2,1,1,3,2,-0.0913262578897731
"3481",3,6,3,1,4,0,1,3,2,0.818280712784681
"3484",3,2,2,1,2,0,1,4,2,0.449971968129966
"3489",5,0,2,1,0,0,1,2,1,0.864137714235395
"3491",0,5,2,1,3,0,2,4,2,0.142629248574442
"3496",5,1,2,1,3,0,1,3,2,0.978362943747476
"3497",4,3,2,1,0,1,1,3,1,0.451386835844279
"3498",4,1,1,1,1,0,1,3,2,0.32237483864967
"3500",3,10,1,2,2,0,1,2,2,0.761698184503907
"3501",4,9,2,1,2,0,1,2,2,0.181515228768754
"3507",4,2,1,1,2,2,1,4,1,0.627830856230249
"3511",3,5,3,1,0,1,1,3,1,0.740701403433245
"3513",2,2,1,1,3,0,0,4,2,0.577860756289479
"3516",3,2,1,1,2,1,1,2,1,0.625033921457708
"3525",3,7,2,1,1,0,2,3,2,0.302821249342757
"3530",5,1,2,1,4,0,1,2,2,1.24978908066965
"3531",3,3,2,1,0,2,1,3,2,0.848882486384638
"3534",0,6,1,1,0,0,1,5,1,9.13048158840446
"3537",5,1,3,1,3,0,2,2,1,1.01400408841622
"3539",2,3,1,1,2,0,1,2,2,0.940120651947308
"3540",5,0,2,1,2,0,1,2,1,0.82835487749663
"3542",5,2,2,1,0,0,1,3,1,0.945550084587126
"3543",4,1,2,1,2,0,1,3,1,0.70200069703222
"3547",4,1,1,1,1,0,1,5,1,9.28628082684725
"3548",3,3,1,1,-1,0,0,2,1,0.841297998865912
"3552",3,7,3,1,2,0,1,4,2,0.388869619747569
"3554",5,3,1,1,0,0,1,5,1,10.1957953106212
"3555",0,1,1,1,1,2,2,2,1,-0.125446805550508
"3557",3,3,1,1,4,0,1,3,1,1.1855303939455
"3558",4,0,4,1,2,0,1,2,2,0.191209844707005
"3561",5,5,2,2,3,0,1,4,1,1.23351402150045
"3562",3,3,1,1,2,0,1,3,2,0.951892660174206
"3563",5,2,1,1,0,0,1,4,1,0.942884798296076
"3572",3,6,1,3,3,0,1,3,1,0.738800452488585
"3575",4,3,1,1,1,2,0,4,1,0.0732449314715868
"3579",3,4,1,1,0,0,1,2,1,0.894185127493384
"3583",5,4,2,1,2,0,1,4,1,0.71336210699021
"3585",4,1,1,1,2,0,1,2,2,0.875673252099628
"3591",5,1,1,1,2,0,1,4,1,1.05272967345655
"3592",4,1,1,1,2,0,1,4,1,0.69933541074117
"3593",4,1,2,3,2,0,1,4,1,0.39667884229884
"3594",4,7,2,1,0,0,1,3,1,0.639067195573703
"3596",4,3,1,1,0,0,1,4,1,0.662913605500593
"3598",4,2,2,1,2,0,1,4,2,0.340791530925286
"3601",3,1,2,1,2,0,1,4,2,0.595599680029201
"3602",5,0,3,1,4,0,1,2,1,0.953978889183573
"3605",4,2,3,1,2,0,1,3,2,0.448359263048636
"3606",4,0,1,1,3,0,1,2,1,0.610844766697782
"3612",4,1,3,1,1,0,1,4,2,-0.214136505559026
"3613",5,1,1,1,2,0,1,4,2,1.05272967345655
"3614",4,1,1,1,2,0,0,4,2,0.663868442361811
"3622",5,1,1,2,1,0,1,4,2,0.714976968628723
"3624",4,1,2,1,0,0,1,3,1,0.737783533770985
"3625",5,2,1,1,2,0,1,4,1,0.907101961557311
"3631",2,2,4,1,2,0,1,2,1,0.370030644036517
"3632",4,1,1,1,0,0,1,2,2,0.911456088838393
"3635",4,3,2,1,2,0,1,3,1,0.629796055052879
"3636",5,1,1,1,0,0,1,5,1,10.2679999526006
"3638",5,2,2,1,0,0,1,3,1,0.945550084587126
"3639",3,5,2,1,1,2,1,4,2,0.293124021607611
"3640",3,4,1,1,2,2,1,4,2,0.756187606784476
"3641",3,1,2,1,3,0,1,2,1,0.694905505387539
"3644",5,1,3,1,4,0,2,4,1,1.14833599682918
"3646",3,1,3,1,3,0,2,3,2,0.809033875754767
"3651",3,2,3,1,2,0,1,2,1,0.518296087404075
"3652",2,3,2,1,-1,0,0,2,2,0.655853435571607
"3653",2,4,2,1,3,0,1,4,1,0.419587870101736
"3654",1,1,1,1,3,0,1,3,1,0.999534093307139
"3655",4,6,1,1,3,1,1,4,2,0.289586905654524
"3657",4,1,1,1,2,0,1,3,1,0.914916864948868
"3659",4,2,1,1,0,0,1,4,1,0.5894905355807
"3662",3,3,4,1,3,2,1,3,2,0.452316863571504
"3664",5,2,1,1,0,0,1,5,1,10.1223722407014
"3665",3,4,1,1,4,1,1,2,1,0.877847968578548
"3669",3,3,1,1,3,2,1,4,2,0.733402347354703
"3671",4,9,2,1,3,0,1,3,2,0.143726825617875
"3673",5,1,1,2,3,0,1,3,1,1.4460684331355
"3675",3,5,1,1,3,1,0,3,2,0.913349472315999
"3676",4,2,2,1,0,0,1,3,1,0.59215582187175
"3677",3,1,1,1,2,0,1,4,1,0.808515847945849
"3678",4,1,4,1,4,0,1,3,1,0.651887660729263
"3679",4,6,3,1,3,2,2,5,1,9.61935815099682
"3681",5,2,2,1,0,0,1,3,1,0.945550084587126
"3682",3,5,1,1,2,0,1,2,1,1.2007968997936
"3683",1,5,3,1,0,0,1,4,1,0.791780812326621
"3685",5,1,3,1,3,0,2,1,2,-0.819169995073393
"3687",5,4,1,1,1,0,0,5,1,9.47775672263358
"3688",3,1,1,1,2,0,1,3,2,1.02409730215355
"3692",5,3,1,1,2,0,1,3,1,1.1961064856849
"3698",1,1,2,1,4,0,2,4,1,1.06460470055654
"3699",5,3,1,2,0,0,1,4,2,1.27109718968734
"3704",5,2,2,1,2,0,1,4,2,0.694185793640663
"3706",4,6,1,1,0,0,1,4,2,0.616593814340773
"3707",3,10,2,1,0,0,1,3,1,0.369019144703889
"3709",4,2,1,1,1,0,2,2,1,0.320401993503532
"3710",5,1,2,1,3,0,2,4,1,0.945679969142115
"3712",4,2,1,1,2,0,1,3,2,0.769289153049633
"3713",4,1,1,1,2,0,1,2,1,0.875673252099628
"3714",3,4,4,1,0,1,2,4,2,0.189886771799002
"3715",3,2,2,1,2,0,1,4,2,0.449971968129966
"3717",4,1,2,1,2,0,2,3,1,0.884899176634557
"3720",4,6,0,1,-1,2,1,3,1,2.59062986640106
"3724",4,1,1,1,2,2,1,2,1,0.949796409487943
"3726",4,7,1,1,1,2,1,4,2,0.0822002036330045
"3727",4,2,2,1,2,0,1,4,1,0.340791530925286
"3728",3,2,2,1,0,2,1,1,2,-1.09695827987411
"3732",5,1,1,1,0,0,1,2,2,1.26485035155377
"3733",2,2,2,1,3,0,2,3,2,0.798891490562225
"3734",3,5,3,1,2,2,0,3,2,0.9577668116508
"3737",3,1,1,1,3,0,0,4,1,0.696016863566371
"3738",1,3,4,2,2,0,0,2,1,0.687773269579797
"3741",5,5,1,1,0,0,1,3,1,1.5200371748923
"3742",3,0,2,1,3,0,2,3,1,0.729251128437392
"3745",1,1,2,1,0,2,1,2,2,0.93431232266845
"3746",5,1,2,1,2,0,1,3,2,1.0553949597476
"3748",5,4,3,1,3,0,0,2,1,0.669187241884841
"3750",4,4,1,1,3,0,1,2,1,0.67218983754982
"3754",4,4,2,1,3,0,1,4,2,0.282935828274714
"3756",5,3,2,1,2,0,2,4,1,0.950507343162893
"3757",4,2,2,1,1,0,1,4,2,-0.251750495373911
"3764",3,1,2,3,2,1,1,1,1,-1.365169018575
"3766",5,0,2,2,3,0,1,3,2,1.04535579581713
"3767",2,2,1,1,3,0,1,3,1,0.828909178876535
"3773",5,5,1,1,3,0,1,2,1,1.36797870930418
"3779",4,2,2,1,4,0,1,3,2,0.790010718904278
"3781",4,1,3,1,0,0,1,4,2,0.414188357478937
"3783",5,1,1,1,0,0,1,2,1,1.26485035155377
"3785",3,3,1,1,3,0,1,2,1,0.835617031324846
"3786",5,3,2,1,3,0,1,4,2,0.690576847560436
"3787",5,1,1,2,2,0,2,4,1,1.49041747453026
"3793",4,2,1,1,0,2,1,2,1,0.839951534327472
"3794",4,2,2,1,2,2,1,3,1,0.6304961425213
"3795",2,8,1,2,0,0,1,2,1,1.11736284411469
"3798",4,7,2,1,0,0,1,2,1,0.599823582724462
"3799",3,1,1,1,2,0,2,3,2,1.20699578175588
"3800",5,1,1,1,2,0,1,4,1,1.05272967345655
"3802",3,5,3,2,0,0,1,3,1,1.20968278085198
"3803",5,2,1,1,3,0,1,4,1,0.830069945557191
"3804",5,2,1,1,3,0,1,4,1,0.830069945557191
"3805",5,1,1,1,3,0,1,3,1,1.19127911166412
"3807",1,5,1,1,0,0,2,4,2,1.29560918192996
"3815",5,7,2,1,2,0,2,4,1,0.923995646944952
"3816",4,2,1,1,4,0,1,2,1,0.963683273971685
"3822",3,3,1,1,3,2,1,4,1,0.733402347354703
"3824",2,0,2,1,4,0,1,2,1,0.845250390379568
"3827",1,1,1,1,2,0,0,2,2,1.00185552807866
"3828",5,0,5,1,3,0,1,4,2,4.52148465447456
"3829",4,0,1,1,3,0,1,2,2,0.610844766697782
"3833",5,5,4,3,0,0,1,4,1,0.718048382168025
"3834",3,4,1,1,0,0,1,2,1,0.894185127493384
"3836",0,4,1,1,2,0,1,2,2,0.0836221852083501
"3838",4,6,2,1,2,1,1,2,1,0.330040595096454
"3839",4,3,2,1,0,0,1,4,1,0.449997437583944
"3840",5,1,2,1,2,1,1,2,1,0.801959290950992
"3844",5,1,2,1,3,0,1,2,1,0.939119330898236
"3849",5,2,2,1,3,0,1,3,1,0.832735231848242
"3850",5,3,2,1,3,0,0,4,1,0.655109879181078
"3852",3,3,1,1,2,0,1,2,2,0.912649047324966
"3853",4,3,2,1,0,0,1,4,1,0.449997437583944
"3858",4,4,1,1,2,0,1,2,1,0.74922185354994
"3860",3,2,2,1,2,2,2,4,1,0.706993605120618
"3871",5,5,2,1,3,0,1,2,2,1.15506254138753
"3872",5,1,1,1,2,0,0,4,1,1.01726270507719
"3875",4,4,1,1,2,0,1,2,1,0.74922185354994
"3878",4,0,1,1,2,0,1,2,2,0.687876782697902
"3883",4,1,2,1,1,0,2,1,1,-1.5800605460035
"3887",4,3,1,1,-1,1,0,4,2,0.341587664355411
"3891",3,7,2,1,0,0,1,4,1,0.532666178570683
"3894",2,1,2,1,4,0,1,2,2,1.03304685978129
"3897",3,0,2,1,4,0,2,2,2,1.00067726535956
"3900",3,1,3,1,1,0,0,1,2,-1.79725927886486
"3901",2,2,4,1,2,0,1,2,1,0.370030644036517
"3903",5,0,3,1,4,0,1,2,1,0.953978889183573
"3905",2,2,1,1,3,0,1,3,2,0.828909178876535
"3907",4,1,1,1,0,0,1,2,2,0.911456088838393
"3909",4,3,1,2,-1,2,0,3,1,1.10027365337016
"3910",3,2,3,1,2,0,1,4,1,0.341958246045617
"3911",5,4,2,1,0,0,1,4,1,0.749144943728975
"3915",4,2,1,1,0,0,1,4,1,0.5894905355807
"3917",4,1,1,3,3,0,1,2,2,0.708900835573826
"3918",2,10,2,1,4,0,2,2,1,0.738000513111855
"3923",5,1,2,1,0,0,1,3,1,1.09117779648636
"3933",5,3,2,1,2,0,1,3,1,0.983190317768255
"3934",4,1,1,1,3,0,1,4,1,0.62230339474105
"3941",4,0,2,2,2,0,1,3,1,0.76899354910187
"3942",5,0,2,2,3,0,1,2,1,1.00611218296789
"3949",3,4,1,1,1,0,2,3,1,0.488002356906999
"3953",5,0,2,1,4,0,1,1,2,-0.771181472221694
"3959",2,4,3,1,0,1,1,2,1,0.386534786167365
"3960",1,5,2,1,2,1,1,4,2,0.649819641724841
"3965",5,0,2,1,3,0,0,3,1,0.755099505966393
"3966",5,2,2,1,1,0,1,5,1,9.28113120974674
"3967",4,1,1,1,1,0,1,3,2,0.32237483864967
"3973",3,1,1,1,3,2,1,3,1,1.02118844354174
"3975",4,3,1,1,1,0,2,4,1,0.217487222064967
"3976",2,6,4,1,-1,2,1,4,2,0.259035158746753
"3980",4,1,4,1,3,0,1,4,2,0.125636456750153
"3984",3,4,1,1,0,2,1,4,1,0.791970443523241
"3985",5,2,2,1,2,0,1,3,1,0.909767247848361
"3986",3,1,2,1,3,0,1,3,2,0.73414911823678
"3988",4,3,1,1,1,0,0,3,1,0.214703228290971
"3992",5,0,2,3,3,0,0,4,1,0.449777651233012
"3996",2,1,1,1,2,0,1,3,1,1.05156890677589
"3998",5,4,3,1,0,0,1,4,2,0.641131221644625
"3999",5,1,1,1,0,0,1,4,1,1.08851251019531
"4001",3,2,1,1,1,2,0,4,1,0.109002298756373
"4002",5,0,1,1,3,0,1,2,2,0.964239029413158
"4003",5,1,2,1,3,0,0,2,1,0.903652362518878
"4015",4,2,2,1,-1,2,0,3,1,0.559145094062247
"4019",4,4,2,1,2,0,1,2,1,0.536305685633292
"4025",4,2,1,1,1,0,2,3,1,0.359645606352773
"4026",5,1,1,1,2,0,1,2,2,1.229067514815
"4027",5,3,3,1,2,0,1,4,1,0.659595141476207
"4028",4,7,1,1,0,0,1,4,1,0.636401909282652
"4031",5,2,2,1,3,0,2,5,1,9.97953969964816
"4033",5,2,2,1,1,0,1,4,2,0.101643767341465
"4034",5,3,2,1,1,0,1,4,2,0.175066837261358
"4037",5,4,1,1,0,0,1,2,1,1.13839895300408
"4042",3,2,1,1,1,2,1,4,2,0.144469267135731
"4043",3,6,1,1,2,2,1,2,1,0.940452413553461
"4046",4,2,2,1,3,0,2,3,1,0.662239448735202
"4047",5,1,1,1,2,0,1,4,1,1.05272967345655
"4063",3,6,2,1,2,0,2,4,1,0.659973726492377
"4069",4,5,2,3,0,1,2,4,1,0.617111313181871
"4070",4,3,1,1,0,2,0,4,2,0.701569794509549
"4073",5,2,2,1,0,0,1,4,1,0.729968630379427
"4079",3,1,1,1,1,0,2,2,2,0.575210142607446
"4085",5,2,1,1,1,0,1,3,2,0.530141389465812
"4086",4,2,1,1,3,0,1,4,1,0.476675682841815
"4088",4,5,2,1,0,0,1,4,1,0.738145290052579
"4092",5,1,1,1,2,0,0,3,1,1.23284415928489
"4093",2,2,1,1,0,0,1,4,2,0.726142577407722
"4095",4,2,1,1,1,0,0,2,1,0.102036545521837
"4096",4,0,1,1,0,1,1,3,1,0.548711176338543
"4102",2,1,1,1,1,2,0,2,1,0.458439456636409
"4107",5,4,2,1,1,0,1,4,2,0.120820080691012
"4108",3,2,2,1,2,0,1,4,1,0.449971968129966
"4109",5,4,2,1,3,0,1,4,1,0.63633009099009
"4111",3,4,1,1,3,0,1,4,1,0.605032433396042
"4112",4,3,2,1,-1,0,0,4,2,0.342863552386126
"4113",4,1,4,1,3,0,1,4,1,0.125636456750153
"4118",4,11,2,1,2,0,1,3,1,1.33075000029452
"4119",2,5,1,1,1,2,0,4,1,0.498044825767244
"4120",3,4,1,1,0,0,1,3,1,0.933428740342625
"4123",2,0,2,1,5,0,2,2,1,4.57760200079
"4127",2,5,3,1,2,2,1,2,2,0.981461771803261
"4136",0,6,2,1,2,2,1,4,1,-0.223581701267915
"4139",5,-1,3,1,4,0,1,3,1,0.993222502032814
"4140",5,2,2,1,4,0,1,1,2,-0.729012714719204
"4142",5,3,2,1,4,0,1,4,1,1.00124659733185
"4150",4,0,2,1,4,0,1,2,2,0.708598348552546
"4151",3,6,2,1,3,0,1,4,1,0.40004323088992
"4156",5,3,1,1,3,0,1,3,1,1.11907446968478
"4162",4,0,2,1,1,0,0,3,1,-0.113804767048061
"4163",4,11,1,1,2,0,1,3,1,1.54366616821117
"4164",0,2,1,2,2,0,0,2,1,0.28376822495082
"4172",4,2,2,2,0,1,1,3,1,0.632753087395761
"4175",5,5,4,2,4,0,1,2,1,1.43677084255607
"4178",3,1,3,1,2,0,1,2,1,0.66392379930331
"4179",3,5,1,1,3,0,0,2,1,1.08829791541412
"4180",5,5,3,1,1,0,1,5,1,9.53468841005092
"4181",4,3,1,1,3,0,1,3,2,0.765680206969407
"4185",4,3,4,1,2,1,1,3,1,0.131853229031265
"4193",4,3,1,2,4,0,1,3,1,1.33113927821219
"4194",4,7,1,3,2,0,1,2,1,0.687216513376664
"4197",4,1,1,1,2,0,1,4,1,0.69933541074117
"4198",5,3,3,1,3,0,1,4,2,0.582563125476087
"4199",2,2,1,1,0,0,1,3,1,0.94172403161542
"4200",5,5,1,1,3,0,1,2,1,1.36797870930418
"4201",4,2,2,1,2,0,1,2,1,0.517129372283745
"4206",2,3,1,1,2,0,1,1,1,-0.893053431542309
"4209",5,1,1,1,3,0,1,4,1,0.975697657456426
"4211",5,3,4,1,0,0,1,4,1,0.519640930225072
"4212",2,5,2,1,2,0,1,4,1,0.839014495140837
"4213",5,3,1,1,1,0,1,4,2,0.387983005178006
"4217",4,3,2,1,1,0,0,4,2,-0.213794393833376
"4223",5,1,4,1,2,0,1,2,1,0.732400576824107
"4227",4,6,3,2,0,0,1,2,1,0.726791087169609
"4228",4,2,4,1,3,0,0,4,2,-0.0554582235284406
"4230",5,2,1,2,2,0,1,4,1,1.16189128302869
"4233",4,4,1,1,2,0,1,2,1,0.74922185354994
"4235",3,3,2,1,0,2,2,4,1,0.816199511779276
"4239",4,1,2,1,3,0,1,3,2,0.6249686810321
"4240",2,2,1,1,0,0,1,3,1,0.94172403161542
"4241",5,0,1,3,2,0,1,2,2,0.951530644887597
"4243",5,3,2,1,4,0,1,3,1,1.21682805153955
"4244",1,3,1,2,2,0,1,3,1,1.25915078879929
"4251",4,1,1,1,3,0,1,4,1,0.62230339474105
"4254",5,2,1,1,2,0,1,4,1,0.907101961557311
"4257",4,1,1,1,0,0,1,3,1,0.950699701687634
"4267",5,1,2,3,3,0,1,4,1,0.673041089014096
"4268",5,3,1,1,1,0,1,4,2,0.387983005178006
"4272",4,6,2,1,3,0,1,3,1,0.506444247892939
"4276",4,2,4,1,3,0,1,3,1,0.195590199058616
"4280",4,6,1,1,3,0,1,4,1,0.503778961601888
"4281",5,0,2,2,4,0,1,2,1,1.3167819327393
"4283",5,2,1,1,0,0,1,3,1,1.15846625250377
"4285",4,5,2,1,3,0,1,3,1,0.840911891521393
"4287",2,1,1,1,2,0,1,4,2,0.835987452568192
"4288",5,1,3,1,3,0,1,4,2,0.654767767455429
"4289",1,3,3,1,1,2,1,5,1,9.12891869661362
"4290",5,5,4,1,0,0,1,2,1,0.984126624052165
"4304",4,1,0,1,0,1,1,2,1,2.45326239017376
"4307",5,1,2,1,2,0,1,5,1,10.0193009479452
"4308",3,1,2,1,1,2,0,2,1,0.218051684097418
"4311",5,1,3,1,2,0,1,3,2,0.947381237663247
"4320",2,3,1,1,0,1,1,3,2,0.800955045587949
"4321",4,5,1,1,2,0,2,4,1,1.0981771008328
"4323",4,4,1,1,2,2,1,2,1,0.823345010938255
"4326",5,1,1,1,2,0,1,4,2,1.05272967345655
"4327",5,6,2,1,3,0,1,3,2,0.859838510608315
"4329",5,2,1,1,4,0,1,2,1,1.31707753668706
"4330",5,1,1,1,3,0,1,4,1,0.975697657456426
"4331",4,11,4,1,1,0,1,4,1,0.238875749713374
"4334",4,1,1,1,-1,0,0,2,2,0.804322203640574
"4335",2,4,4,1,0,0,1,3,2,0.46423340697407
"4336",3,2,1,1,3,0,1,3,1,0.801437574254193
"4340",5,0,1,1,2,0,1,2,2,1.04127104541328
"4341",4,1,1,1,3,0,1,2,2,0.798641236099508
"4342",5,3,2,1,1,0,0,4,1,0.139599868882
"4343",5,3,2,1,3,0,1,5,1,9.87006428996572
"4348",3,3,1,1,2,0,1,2,1,0.912649047324966
"4350",3,4,1,1,0,0,1,3,2,0.933428740342625
"4353",4,5,2,1,2,2,1,2,1,0.952823452060588
"4357",5,2,1,1,1,0,1,4,2,0.314559935258113
"4358",4,3,1,1,4,0,1,2,1,1.03710634389158
"4359",4,1,1,3,3,0,1,2,2,0.708900835573826
"4362",5,6,4,1,3,0,1,5,1,9.53999372873165
"4364",4,1,2,2,4,2,2,1,1,-0.424968307073318
"4370",3,2,1,1,2,0,1,2,1,0.839225977405072
"4371",1,1,1,1,1,0,0,2,1,0.409313501779462
"4377",5,0,3,1,2,0,1,3,2,0.759584768261522
"4385",4,5,2,1,0,0,1,2,1,0.914483131411038
"4386",2,2,1,1,-1,0,0,2,1,0.795346533568361
"4387",5,5,1,0,-1,0,0,5,1,10.9673525664898
"4394",4,6,1,1,0,0,1,4,2,0.616593814340773
"4395",5,1,1,1,3,0,1,2,1,1.15203549881488
"4398",5,2,1,1,3,0,2,3,1,1.22854987936723
"4399",5,1,2,1,3,0,2,4,1,0.945679969142115
"4400",5,1,2,1,3,0,1,2,2,0.939119330898236
"4401",2,10,1,1,0,0,1,3,2,0.609406917242879
"4403",5,2,1,1,3,0,1,2,1,1.00640778691565
"4405",5,1,1,1,3,0,1,3,1,1.19127911166412
"4411",1,3,1,1,0,0,1,4,1,0.824562849858984
"4413",4,4,1,1,2,2,1,3,2,0.862588623787495
"4416",3,4,1,2,0,0,1,4,2,0.972636607606301
"4417",3,11,1,1,3,0,2,3,1,1.75871306901806
"4418",2,2,1,1,0,0,1,2,1,0.90248041876618
"4420",3,2,1,3,2,2,1,2,1,0.823608734267706
"4424",4,6,1,1,2,0,0,4,1,0.54534400922265
"4426",5,2,1,2,2,0,1,4,1,1.16189128302869
"4430",5,1,1,1,1,0,1,4,2,0.460187647157348
"4433",3,5,1,1,2,1,1,2,1,0.986604843846236
"4434",5,2,2,1,2,0,1,2,1,0.870523634999121
"4435",5,0,2,1,2,0,1,2,2,0.82835487749663
"4436",2,2,1,1,3,1,1,2,2,0.575473510079931
"4441",3,3,1,1,2,2,2,3,1,1.20891429716486
"4443",3,4,1,1,4,0,1,2,1,1.09204002452591
"4445",4,3,2,1,2,1,1,3,2,0.415603999105514
"4447",4,5,3,3,0,0,1,4,1,0.540391167442549
"4448",5,2,1,2,0,0,1,2,2,1.37401196112591
"4451",1,1,1,1,4,0,1,3,1,1.31020384307855
"4452",4,2,1,1,0,0,1,3,1,0.805071989788398
"4454",3,4,3,1,0,0,1,2,1,0.573255237492387
"4457",4,1,1,1,2,0,1,1,1,-0.957500831389989
"4460",4,6,3,1,1,0,0,3,1,-0.152546452869847
"4464",4,1,1,1,2,0,1,4,1,0.69933541074117
"4466",4,3,3,1,0,0,1,3,1,0.557565169707294
"4468",5,2,4,1,1,0,0,4,2,-0.217573971112142
"4473",5,4,4,1,3,0,1,4,1,0.352579320915841
"4474",4,11,1,1,2,0,1,3,1,1.54366616821117
"4475",4,2,2,1,2,0,1,2,1,0.517129372283745
"4476",1,0,2,2,4,2,2,3,1,1.4213021642222
"4477",5,0,2,1,4,0,1,2,2,1.06199261126792
"4481",4,0,2,1,3,0,1,4,1,0.221590757422676
"4493",5,1,1,1,3,0,1,3,1,1.19127911166412
"4496",5,3,2,1,4,0,2,4,1,1.18414507693419
"4498",5,1,1,1,3,0,1,4,1,0.975697657456426
"4499",5,2,4,1,3,0,0,4,1,0.297936039186935
"4500",4,5,2,1,2,0,1,2,1,0.878700294672273
"4501",4,1,2,1,3,2,1,4,1,0.483510384212716
"4503",2,9,1,1,3,2,1,4,1,0.351836738542161
"4511",4,0,2,1,0,0,1,2,2,0.510743451520019
"4512",4,6,2,1,0,0,1,4,2,0.403677646424125
"4516",3,0,1,1,2,1,1,2,2,0.582865163955218
"4518",3,2,2,1,1,0,1,4,2,-0.142570058169232
"4519",4,2,1,1,2,2,1,4,2,0.627830856230249
"4524",5,1,1,1,3,0,1,4,1,0.975697657456426
"4525",2,2,2,1,0,0,1,3,2,0.728807863698772
"4528",5,2,2,1,2,0,1,4,1,0.694185793640663
"4531",5,0,1,1,1,0,0,2,1,0.413262050734722
"4534",4,3,2,1,2,0,0,4,1,0.378747632465821
"4535",3,2,1,1,0,0,1,5,1,9.87815841519066
"4536",5,2,1,1,2,0,1,3,1,1.12268341576501
"4538",3,3,1,3,2,1,1,4,1,0.432378749493462
"4539",4,2,1,1,2,0,1,2,1,0.730045540200393
"4544",4,4,3,1,3,0,2,4,2,0.357820585792701
"4545",3,2,1,1,2,2,1,2,1,0.913349134793387
"4548",1,4,2,1,4,0,1,2,1,0.931592663762975
"4550",0,6,1,1,2,0,2,4,1,0.0981097888627553
"4556",2,2,1,1,1,0,1,3,2,0.313399168577458
"4561",4,1,2,1,2,0,1,2,1,0.66275708418298
"4573",4,0,1,1,2,0,1,2,1,0.687876782697902
"4575",4,3,2,1,2,0,1,3,1,0.629796055052879
"4576",2,1,1,1,2,0,1,5,1,10.0154748949735
"4579",2,0,1,1,2,2,1,1,2,-0.934522101576378
"4581",4,3,2,1,2,0,0,2,1,0.55508547382428
"4584",3,1,2,1,2,0,1,2,1,0.771937521387659
"4585",1,3,2,1,3,0,2,5,1,9.86121775121107
"4587",4,1,1,1,3,2,1,2,2,0.872764393487823
"4588",4,2,2,1,3,1,1,2,2,0.225905300336261
"4590",1,0,1,1,2,0,1,2,1,0.849526027056293
"4593",4,5,1,1,0,0,1,3,1,1.16664291217693
"4594",5,1,1,1,0,0,1,2,1,1.26485035155377
"4596",5,6,2,1,1,0,1,5,1,9.30823448850682
"4598",4,5,1,1,1,0,0,4,1,0.287269626551907
"4603",3,4,1,1,3,0,1,3,1,0.82061388760374
"4605",4,4,2,1,0,2,1,4,1,0.469873838401913
"4606",5,2,1,3,3,0,1,4,1,0.740329545031509
"4610",4,0,1,1,0,0,1,2,1,0.723659619436667
"4612",4,6,1,1,0,0,1,4,2,0.616593814340773
"4614",4,2,1,1,3,0,1,3,2,0.692257137049514
"4615",5,2,3,1,4,0,1,4,1,0.819809805327605
"4622",5,3,2,1,3,0,1,2,1,0.866914688918894
"4623",1,2,3,1,2,0,1,3,1,0.610008507407027
"4625",3,5,1,1,-1,2,1,4,2,1.06269813574376
"4628",4,1,1,1,3,2,1,4,1,0.696426552129364
"4634",5,1,1,1,3,0,1,2,1,1.15203549881488
"4637",4,2,2,1,1,0,0,2,1,-0.110879622394811
"4641",5,2,1,1,0,0,1,2,1,1.11922263965453
"4643",5,0,1,2,2,0,1,2,2,1.29606036688465
"4645",3,2,1,1,2,2,1,3,1,0.952592747642628
"4655",2,3,1,0,-1,0,0,4,2,1.2829750507275
"4659",5,3,1,1,1,0,1,4,2,0.387983005178006
"4661",5,1,2,1,3,0,1,3,2,0.978362943747476
"4666",5,4,1,1,3,0,1,4,1,0.849246258906738
"4670",3,2,0,1,-1,2,1,3,1,2.67270702484566
"4671",2,1,2,1,3,2,1,3,1,0.835743880247437
"4672",5,4,1,1,2,0,1,3,2,1.14185972911456
"4675",1,3,2,1,0,0,1,4,1,0.611646681942335
"4678",4,2,2,1,1,0,0,4,2,-0.28721746375327
"4679",2,1,1,1,4,0,1,2,2,1.24596302769794
"4680",2,1,1,2,2,2,1,2,2,1.34123777278634
"4683",3,3,1,1,2,1,1,4,1,0.522119150019143
"4685",0,3,1,1,2,0,1,2,1,0.137868941778696
"4690",5,4,3,1,4,0,2,3,1,1.23746605248719
"4693",4,1,2,3,2,0,1,4,1,0.39667884229884
"4694",4,2,2,1,3,0,1,3,1,0.479340969132865
"4695",5,9,1,1,3,0,1,4,1,0.4944558020422
"4696",4,1,1,1,1,0,2,3,1,0.505273318252007
"4698",3,5,0,1,1,2,1,3,1,2.47762000101469
"4699",5,1,2,1,3,0,1,4,2,0.762781489539778
"4700",5,2,4,2,3,0,1,4,2,0.588192329037669
"4705",4,9,1,1,1,1,1,5,1,8.59084691548566
"4708",3,2,1,1,3,2,2,3,2,1.05845921124484
"4711",1,3,1,1,0,0,1,5,1,10.0040502922643
"4712",4,0,1,2,1,0,0,2,1,0.314657109490721
"4714",1,2,3,1,4,0,1,4,1,0.62806478697062
"4716",4,4,1,1,2,2,1,2,1,0.823345010938255
"4717",4,3,1,1,1,0,2,2,1,0.393825063423425
"4720",4,1,2,1,2,0,1,2,1,0.66275708418298
"4721",4,1,2,1,3,0,1,4,2,0.409387226824402
"4722",4,2,2,1,3,2,1,4,1,0.337882672313481
"4724",3,6,1,1,3,0,1,3,2,0.828540853014267
"4725",3,5,1,1,2,2,2,3,2,1.49706214963349
"4726",2,1,1,1,1,0,1,4,1,0.243445426268994
"4729",5,2,3,1,4,0,1,4,1,0.819809805327605
"4731",5,3,2,1,1,0,1,5,1,9.35455427966664
"4734",5,3,2,3,3,0,1,2,1,0.777174288393213
"4737",5,1,1,1,3,0,1,2,2,1.15203549881488
"4740",2,0,1,1,2,1,1,1,2,-1.22283731491206
"4742",5,1,1,2,3,0,1,2,1,1.40682482028626
"4743",4,1,2,1,2,0,1,2,2,0.66275708418298
"4744",3,2,1,1,1,2,1,3,1,0.36005072134343
"4746",4,5,2,1,0,0,1,2,2,0.914483131411038
"4748",5,3,1,1,0,0,2,4,1,1.19920634781831
"4749",5,4,2,1,3,0,0,4,1,0.600863122610732
"4750",2,2,1,1,1,0,0,3,1,0.277932200198099
"4756",2,10,1,2,2,0,1,3,1,0.82841340197549
"4758",5,0,1,1,2,0,1,2,2,1.04127104541328
"4761",4,3,1,1,2,0,1,4,1,0.627130768761828
"4764",4,5,1,1,2,0,1,3,2,1.13086007543816
"4765",4,5,1,1,2,0,1,3,1,1.13086007543816
"4768",5,3,2,1,3,0,1,3,2,0.906158301768135
"4769",4,11,1,1,3,0,1,5,1,10.4305401404086
"4770",5,5,3,1,0,0,1,4,1,0.983525830683607
"4771",4,1,1,1,2,0,1,2,1,0.875673252099628
"4773",1,5,1,1,2,0,1,2,2,1.25326570694731
"4774",1,2,3,3,2,0,1,3,1,0.520268106881345
"4776",2,6,1,1,2,0,1,3,1,0.933044473636729
"4778",5,2,2,1,2,0,1,2,1,0.870523634999121
"4782",3,1,3,1,2,2,1,4,2,0.561709115333166
"4784",2,1,2,1,2,0,1,4,2,0.623071284651543
"4786",3,3,1,1,2,2,1,2,1,0.986772204713281
"4788",4,2,1,1,0,1,1,2,1,0.551636320991794
"4789",5,1,3,1,0,0,1,3,1,0.983164074402012
"4790",5,3,1,1,2,0,1,4,1,0.980525031477204
"4794",4,2,2,1,-1,2,1,4,2,0.379030608233906
"4797",4,2,2,1,1,0,0,2,2,-0.110879622394811
"4801",0,11,2,1,3,0,1,4,2,0.372536861745111
"4803",4,2,1,1,0,0,1,3,1,0.805071989788398
"4805",5,3,1,2,3,0,0,4,1,1.1228153685691
"4808",4,6,2,1,2,0,1,4,1,0.36789480968536
"4809",0,1,2,1,0,0,1,2,2,0.0329402525801547
"4811",3,1,1,1,2,0,1,2,1,0.984853689304307
"4815",5,1,1,1,3,0,0,4,1,0.940230689077068
"4818",4,1,1,1,0,2,2,2,2,1.16847772582904
"4820",4,0,1,1,3,0,1,4,1,0.434506925339324
"4822",2,3,1,1,0,2,1,2,2,1.05002664607439
"4823",4,6,2,1,4,0,2,3,1,1.00001247726669
"4826",5,0,2,1,3,0,1,2,1,0.751322861496511
"4828",3,1,2,1,3,0,1,4,1,0.518567664029081
"4830",5,2,1,1,3,0,1,4,1,0.830069945557191
"4833",4,4,1,1,1,0,1,3,2,0.195923440099982
"4835",5,1,2,1,1,0,1,4,2,0.2472714792407
"4840",4,0,1,1,2,1,1,3,1,0.512928339599779
"4841",5,1,2,1,2,0,0,3,1,1.01992799136824
"4844",1,1,2,1,2,0,1,5,1,9.82755592958819
"4846",4,9,2,1,3,0,1,4,1,-0.0718546285898243
"4848",2,5,1,1,2,0,2,4,1,1.23482914265982
"4851",4,1,2,1,3,0,1,4,2,0.409387226824402
"4854",4,3,3,1,3,0,2,4,1,0.412067342363048
"4855",5,2,4,1,2,0,1,2,1,0.586772864924872
"4856",4,3,2,1,2,0,1,3,1,0.629796055052879
"4858",5,5,3,1,3,0,0,3,1,1.05082546377306
"4863",5,2,3,1,2,0,1,4,2,0.586172071556313
"4870",4,0,2,2,3,0,1,4,1,0.476380078894051
"4871",4,1,4,3,2,2,1,4,1,0.187051229612906
"4874",4,3,1,3,2,2,1,2,1,0.787851366982919
"4876",5,2,1,1,2,0,1,3,1,1.12268341576501
"4880",4,2,4,1,1,1,0,5,1,8.3943271526304
"4881",4,6,1,1,0,0,1,4,1,0.616593814340773
"4882",4,2,1,1,2,0,1,2,1,0.730045540200393
"4885",4,3,2,1,2,2,1,2,2,0.664675599591953
"4895",4,4,1,0,-1,0,0,4,1,1.09207625233013
"4897",4,0,1,1,3,1,1,2,1,0.396652710750418
"4898",3,4,2,1,1,0,0,3,2,0.0567207410086558
"4903",4,2,1,1,0,2,1,2,2,0.839951534327472
"4904",5,4,1,2,2,0,1,2,1,1.35740543773669
"4905",4,6,3,1,2,1,0,4,1,0.0102220632742885
"4906",0,0,2,1,3,0,2,2,2,-0.0847725899581185
"4908",3,4,1,1,2,1,1,2,2,0.644210234807255
"4914",4,1,2,1,1,0,0,2,2,0.0347480895044232
"4920",3,1,1,1,2,0,1,3,2,1.02409730215355
"4922",4,7,1,1,2,0,1,4,1,0.600619072543887
"4923",4,2,1,1,-1,1,0,4,1,0.268164594435517
"4926",5,3,2,1,1,0,1,4,2,0.175066837261358
"4928",3,2,1,1,1,0,1,4,2,0.0703461097474162
"4929",3,0,1,1,3,2,1,2,2,0.794148361290777
"4934",4,1,1,1,2,0,1,3,2,0.914916864948868
"4938",0,2,1,1,3,0,1,2,2,-0.0125861441413168
"4942",4,3,2,1,3,0,2,3,1,0.735662518655095
"4944",4,4,1,1,2,1,1,4,2,0.358691956244117
"4946",5,3,2,1,0,0,1,3,2,1.01897315450702
"4947",4,5,4,1,0,0,1,2,1,0.630732361336789
"4949",4,2,1,1,1,0,1,3,2,0.176747126750435
"4952",1,2,2,1,3,2,1,3,1,0.715113370879571
"4953",3,4,1,1,1,2,0,4,1,0.12817861210592
"4954",5,1,4,1,0,0,1,4,2,0.591845572204413
"4955",4,2,2,1,3,0,0,2,2,0.404630387904267
"4956",4,2,2,1,0,0,2,4,2,0.559472847266388
"4958",4,2,2,1,3,2,1,3,2,0.55346412652118
"4960",4,3,2,1,0,1,1,2,2,0.412143222995039
"4961",2,6,1,1,2,0,1,2,1,0.893800860787489
"4962",5,11,2,1,2,0,1,4,1,1.4685628088022
"4969",4,3,2,1,3,0,2,4,2,0.520081064447397
"4978",3,1,1,1,3,0,1,1,2,-0.925352410185429
"4982",3,3,1,1,2,1,1,3,1,0.737700604226842
"4984",4,3,2,1,2,0,0,3,1,0.59432908667352
"4987",5,3,1,1,1,0,1,4,2,0.387983005178006
"4988",2,2,2,1,2,0,1,3,1,0.693025026960007
"4995",5,1,2,1,1,0,1,5,1,9.42675892164598
"4997",3,3,1,1,0,1,1,4,1,0.557901986757908
"5001",4,5,1,1,3,0,1,4,1,0.838246605230343
"5002",5,3,1,1,3,0,1,2,1,1.07983085683554
"5007",3,1,1,1,2,2,2,3,1,1.2811189391442
"5008",1,0,1,1,3,0,1,2,2,0.772494011056173
"5009",4,4,1,1,1,0,0,3,1,0.160456471720624
"5010",5,2,2,2,1,0,1,4,2,0.35643308881284
"5014",4,5,1,1,1,0,2,2,2,0.68197291589206
"5017",3,4,2,2,3,0,1,4,2,0.646905586950768
"5018",5,3,3,1,4,0,1,2,1,1.06957071660596
"5020",3,8,1,1,1,2,1,3,2,0.320143825220563
"5021",4,1,1,1,1,0,0,2,2,0.247664257421072
"5022",5,8,2,1,3,0,1,4,1,0.577246881517676
"5023",2,1,1,1,1,0,1,1,1,-1.41339081586217
"5024",4,4,1,1,1,2,1,4,2,0.0544651432805986
"5027",4,2,2,1,2,0,1,4,1,0.340791530925286
"5028",2,4,1,1,4,0,1,2,1,1.11951162914825
"5029",5,2,1,1,2,0,0,3,1,1.08721644738565
"5030",4,1,1,1,2,0,1,1,2,-0.957500831389989
"5034",4,1,2,1,1,0,1,4,2,-0.106122783474676
"5038",5,6,2,1,3,0,1,4,1,0.644257056400616
"5041",4,10,1,1,3,1,1,3,2,0.145747966729609
"5044",3,0,2,1,2,2,1,2,2,0.658264209374248
"5045",3,8,1,1,-1,1,0,4,2,0.33743813551733
"5047",5,1,1,1,3,0,2,2,1,1.33493397841722
"5049",4,4,2,1,2,0,1,4,1,0.359967844274833
"5050",4,2,1,1,2,0,1,2,2,0.730045540200393
"5051",5,2,1,1,2,0,1,3,1,1.12268341576501
"5053",3,4,1,1,0,1,1,3,2,0.719236684395261
"5054",4,4,2,1,-2,2,0,4,2,0.362739953204095
"5055",2,3,1,1,0,0,1,5,1,9.9790530897329
"5056",3,2,3,1,3,1,1,4,1,0.0507341740981327
"5059",5,3,1,2,2,0,1,4,1,1.23531435294858
"5063",4,5,1,1,0,0,1,2,2,1.12739929932769
"5067",5,2,2,2,2,0,1,4,1,0.948975115112038
"5073",5,0,3,2,0,0,1,2,1,1.01091331362242
"5075",3,0,2,1,4,0,1,2,2,0.817778785757226
"5077",2,5,1,1,1,0,1,4,2,0.459388636758287
"5085",4,3,2,1,2,2,2,4,1,0.671236237835831
"5088",4,0,1,1,1,0,2,1,2,-1.55494084748858
"5090",4,2,1,1,2,0,1,3,1,0.769289153049633
"5091",5,1,1,1,0,0,1,3,1,1.30409396440301
"5093",4,2,2,1,1,0,0,2,1,-0.110879622394811
"5097",5,1,1,1,2,0,1,2,1,1.229067514815
"5098",5,2,4,1,2,0,1,4,1,0.410435023566413
"5102",4,7,2,1,0,0,2,4,2,0.606384220968341
"5105",5,4,1,1,2,0,1,3,1,1.14185972911456
"5106",3,2,3,1,2,0,1,3,1,0.557539700253315
"5109",3,6,1,1,0,0,1,4,2,0.725774251545453
"5110",3,4,1,1,1,0,1,3,2,0.305103877304662
"5112",2,2,2,1,4,0,2,4,1,0.893979786125938
"5115",4,1,3,1,3,0,1,3,2,0.516954958947751
"5121",3,3,1,1,3,0,1,3,2,0.874860644174087
"5123",3,3,1,1,1,0,2,2,2,0.503005500628105
"5124",2,3,1,1,3,1,1,5,1,9.65204618104665
"5126",1,5,3,1,3,2,1,3,1,0.96867057118375
"5128",5,3,1,1,1,0,0,2,1,0.528853878157106
"5129",3,10,2,1,2,0,1,3,1,0.333236307965124
"5130",2,3,2,1,2,0,1,3,1,0.766448096879901
"5131",5,0,1,1,2,0,1,1,1,-0.791903038076339
"5136",5,2,1,1,2,0,1,3,2,1.12268341576501
"5137",3,6,2,1,2,0,1,3,1,0.692656701097738
"5138",4,2,3,1,4,1,2,3,2,0.650703420474901
"5145",5,0,1,1,2,0,1,2,1,1.04127104541328
"5148",4,10,1,1,0,0,2,4,2,0.440071900810496
"5151",5,1,2,1,3,0,1,4,1,0.762781489539778
"5155",4,4,0,1,1,0,0,3,1,1.91645482900336
"5159",1,4,1,1,0,0,1,2,1,0.946653934647096
"5160",0,1,1,1,2,0,1,4,2,0.0337357423995795
"5165",4,2,2,1,-1,1,1,4,2,0.0907153948982272
"5166",3,2,2,1,0,0,1,4,2,0.485754804868731
"5168",4,7,1,1,2,0,1,3,2,0.816200526751586
"5170",4,0,2,1,4,0,1,3,1,0.747841961401787
"5171",2,2,2,1,0,0,1,5,1,9.69271385189635
"5175",4,6,1,1,2,0,1,4,1,0.580810977602008
"5176",4,1,1,1,2,1,1,4,1,0.485143354793806
"5180",4,2,1,1,3,0,1,4,1,0.476675682841815
"5181",4,2,4,1,3,0,1,3,1,0.195590199058616
"5182",3,10,2,1,2,0,1,2,1,0.293992695115883
"5185",4,5,1,1,0,0,1,4,1,0.951061457969228
"5186",4,2,2,1,0,0,1,4,1,0.376574367664051
"5189",3,1,1,1,2,0,1,3,2,1.02409730215355
"5194",5,3,3,1,3,0,1,4,2,0.582563125476087
"5197",5,1,3,1,3,0,1,5,1,9.83425520986071
"5200",4,3,1,0,-1,0,0,5,1,10.3258104513058
"5201",3,2,1,1,2,0,1,2,2,0.839225977405072
"5203",5,5,3,1,2,0,1,3,2,1.16332444815254
"5205",5,1,1,1,1,0,0,4,1,0.42472067877799
"5206",5,5,1,1,2,0,1,3,1,1.48425433815354
"5207",3,8,1,1,1,2,1,4,2,0.104562371012864
"5208",5,2,4,3,3,0,2,4,1,0.426561086642949
"5213",5,5,2,1,1,0,1,5,1,9.64270213213527
"5214",4,3,2,1,2,0,1,3,1,0.629796055052879
"5226",2,3,3,1,3,0,2,2,2,0.725057225548528
"5229",5,4,1,1,1,0,0,4,2,0.298269280228302
"5231",4,5,1,1,1,0,0,2,2,0.463607467910365
"5232",5,2,1,1,2,0,1,4,1,0.907101961557311
"5233",2,9,2,1,3,2,1,4,1,0.138920570625512
"5235",3,3,4,1,2,0,1,4,1,0.239644267975611
"5238",1,-1,2,1,4,0,1,2,2,0.870247592910937
"5239",1,1,1,1,4,0,1,1,2,-0.562213853260306
"5240",4,3,1,1,0,0,1,4,1,0.662913605500593
"5241",4,5,3,1,1,2,1,5,1,9.25541730472386
"5246",4,4,1,1,1,1,1,4,2,-0.23385007005508
"5248",3,11,2,1,3,0,1,3,1,1.36289842149908
"5250",5,6,2,1,0,0,2,3,1,1.15555184294954
"5253",5,4,2,1,3,0,2,3,1,1.03481002480013
"5255",4,5,2,1,2,0,1,3,1,0.917943907521514
"5256",0,2,0,2,-1,0,0,4,1,1.8275446607954
"5257",4,8,3,1,3,0,2,1,1,-1.35809886581087
"5263",3,1,2,1,4,0,1,3,1,1.04481886800819
"5274",4,5,2,1,3,0,1,4,1,0.625330437313695
"5275",3,9,1,3,3,0,1,3,1,0.37608303021352
"5277",5,2,4,1,2,0,1,2,1,0.586772864924872
"5278",3,3,2,1,2,0,1,3,1,0.738976492257558
"5282",4,2,1,1,-1,2,0,2,1,0.732817649129654
"5286",5,2,1,1,3,0,1,4,1,0.830069945557191
"5290",3,2,2,1,1,2,1,3,2,0.147134553426782
"5291",4,1,2,1,0,0,2,4,1,0.705100559165623
"5292",4,4,2,1,2,2,1,4,1,0.434091001663148
"5297",2,0,3,1,4,0,1,1,2,-1.0959374151944
"5299",4,2,1,1,1,0,1,4,2,-0.0388343274572633
"5300",4,3,4,0,-1,0,0,4,1,0.649656070909584
"5302",4,4,2,1,3,0,1,4,1,0.282935828274714
"5303",5,2,2,1,3,0,1,4,2,0.617153777640543
"5304",5,2,1,1,4,0,1,2,1,1.31707753668706
"5306",1,2,1,1,0,0,1,2,2,0.927477621297548
"5310",4,0,3,1,4,0,2,4,2,0.607145264712075
"5314",4,3,3,2,2,2,1,2,2,0.811451198978979
"5320",4,2,3,1,4,0,2,4,2,0.649314022214566
"5327",4,1,1,1,0,0,1,3,2,0.950699701687634
"5332",2,1,1,1,0,0,1,2,2,1.04810813066541
"5338",4,11,3,2,4,0,1,4,1,1.49558187924514
"5341",2,7,1,1,3,2,1,4,2,0.734362255759105
"5344",1,2,2,1,2,0,1,2,1,0.678778616642135
"5345",4,3,1,1,3,0,1,1,2,-1.10673748936945
"5346",5,2,3,1,0,0,1,3,1,0.837536362502777
"5347",3,1,1,1,3,0,1,4,1,0.731483831945729
"5348",4,2,3,1,3,0,1,4,2,0.155745792840817
"5351",3,4,2,2,1,0,1,4,2,0.13139557665169
